Merging external spatial data
…
This giant circle is certainly not what we would expect! What’s going on here? Earlier in this post we mentioned that the WGS84 crs is a geographic coordinate system that simply uses the latitude and longitude coordinates to identify locations and the units are in degrees, rather than meters or kilometers. This circle thus has a radius of 10,000 degrees and since the Earth only spans 360 degrees it is fully covered by this circle. As we mentioned, the WGS84 crs is not ideal for measuring distances. R alerted us of this problem with two warnings: st_buffer does not correctly buffer longitude/latitude data and dist is assumed to be in decimal degrees (arc_degrees). This is why it’s so important to pay attention to the crs of your data.

To properly construct a buffer circle around these GPS points, we need to transform the data to a different projection that uses meters or kilometers. And, because it’s essential that all of our data are in the same crs, we need to transform or reproject everything. For vector data, we can do this using sf::st_transform() and for raster data we’ll do this with raster::projectRaster(). For the transformation, we’re using a crs that is projected to meters and is appropriate to the local geography of Burkina Faso. You can read about it on the epsg.io site. After reprojecting, we’ll calculate the buffer again and plot it to make sure this looks right.

# transform the GPS data
gps_tr <- gps %>% st_transform(crs = 32630)
gps_tr

Simple feature collection with 83 features and 5 fields
geometry type:  POINT
dimension:      XY
bbox:           xmin: 260943.3 ymin: 1114669 xmax: 1025472 ymax: 1653511
projected CRS:  WGS 84 / UTM zone 30N
# A tibble: 83 x 6
   PMACC PMAYEAR REGION                EAID DATUM           geometry
 * <chr>   <dbl> <chr>                <dbl> <chr>        <POINT [m]>
 1 BF       2017 5. centre-nord        7610 WGS84 (837531.4 1567675)
 2 BF       2017 1. boucle-du-mouhoun  7820 WGS84 (491871.7 1488848)
 3 BF       2017 3. centre             7271 WGS84   (982414 1349907)
 4 BF       2017 3. centre             7799 WGS84   (739431 1352652)
 5 BF       2017 8. est                7243 WGS84 (545866.2 1219668)
 6 BF       2017 6. centre-ouest       7026 WGS84 (352638.7 1209502)
 7 BF       2017 3. centre             7859 WGS84 (833822.1 1377527)
 8 BF       2017 3. centre             7725 WGS84 (980025.8 1406727)
 9 BF       2017 6. centre-ouest       7390 WGS84 (439876.7 1190609)
10 BF       2017 11. plateau-central   7104 WGS84 (835483.2 1469280)
# … with 73 more rows
…
