Data Analysis Hub: Visualizing migration patterns over time
…
Remember: change these file paths to match the download location for your own data extract!

Now that the data are in a long format, each row of the data represents one place in a respondents migration history. For example, notice that person ID == 20 occupies two rows, one for each of the two places she listed:

dat

# A tibble: 5,251 x 24
      ID PLACE    COUNTRY  DISTRICTKE MOVEAGE UR    YCHILDEDU YCOHABIT
   <int> <dbl>  <int+lbl>   <int+lbl> <int+l> <fct> <int+lbl> <int+lb>
 1     2     1 404 [Keny  6 [Nairob      16 Rural    0 [No]   0 [No]
 2    11     1 404 [Keny 10 [Kakame      17 Rural    0 [No]   0 [No]
 3    12     1 404 [Keny 10 [Kakame      16 City    0 [No]   0 [No]
 4    14     1 404 [Keny  7 [Nandi]       29 Rural    0 [No]   0 [No]
 5    14     2 404 [Keny 32 [Migori]      19 City    0 [No]   0 [No]
 6    16     1 404 [Keny  6 [Nairob      21 Rural    0 [No]   0 [No]
 7    19     1 404 [Keny 33 [Mombas      31 Peri    0 [No]   0 [No]
 8    20     1 404 [Keny  8 [Nyamir      19 City    0 [No]   0 [No]
 9    20     2 404 [Keny  8 [Nyamir      21 Peri    0 [No]   0 [No]
10    21     1 404 [Keny  6 [Nairob      34 Peri    0 [No]   0 [No]
#  with 5,241 more rows, and 16 more variables: YCONFLICT <int+lbl>,
#   YDIVORCE <int+lbl>, YFARM <int+lbl>, YHLTHACCESS <int+lbl>,
#   YHLTHPROB <int+lbl>, YJOBSEARCH <int+lbl>, YOTHER <int+lbl>,
#   YOTHERSOCIAL <int+lbl>, YPOSTMAR <int+lbl>,
#   YSCHOOLATTEND <int+lbl>, YSCHOOLDONE <int+lbl>,
#   YSICKREL <int+lbl>, YSPOUSEJOB <int+lbl>, YWKCHANGE <int+lbl>,
#   YWKNONSEAS <int+lbl>, YWKSEASON <int+lbl>
…
Figure 1: Figure from https://cran.r-project.org/web/packages/ggalluvial/vignettes/ggalluvial.html

Alluvial plots are particularly useful for visualizing flows over time  this means we can map the characteristics of respondents across different moves and places theyve lived! This can be really informative for migration data.

One topic migration researchers are often interested in studying is how people move across the urban-rural spectrum. The PMA migration module includes a variable that classifies each residence respondents previously lived in as urban, peri-urban, or rural. Here we can see that individual 2 previously lived in a rural location. Individual 14 lived in two previous residences: the most recent (PLACE == 1) was a rural location, and prior to that (PLACE == 2) she lived in a city or town.

Remember, PMA considers moves in the migration data only if respondents lived in at least one other location for six months or more after the age of 15 or after her first marriage if married before the age of 15.

dat %>%
  select(ID, PLACE, UR)

# A tibble: 5,251 x 3
      ID PLACE UR        
   <int> <dbl> <fct>     
 1     2     1 Rural     
 2    11     1 Rural     
 3    12     1 City/town 
 4    14     1 Rural     
 5    14     2 City/town 
 6    16     1 Rural     
 7    19     1 Peri-urban
 8    20     1 City/town 
 9    20     2 Peri-urban
10    21     1 Peri-urban
#  with 5,241 more rows
…
