Introducing Longitudinal Service Delivery Point Data
…
sdp <- read_ipums_micro(
  ddi = "data/pma_00129.xml",
  data = "data/pma_00129.dat.gz"
)

# Use labels as factor levels for the following variables (for readability)
sdp <- sdp %>% 
  mutate(
    COUNTRY = as_factor(COUNTRY),
    across(starts_with("RESULT"), as_factor)
  )

sdp %>% select(COUNTRY, FACILITYID, starts_with("RESULT"))

# A tibble: 10,212 × 6
   COUNTRY      FACILITYID RESULTSQ_1 RESULTSQ_2 RESULTSQ_3 RESULTSQ_4
   <fct>        <chr+lbl>  <fct>      <fct>      <fct>      <fct>     
 1 Burkina Faso 7298       Completed  Completed  Completed  Completed 
 2 Burkina Faso 7399       Completed  Completed  Completed  Completed 
 3 Burkina Faso 7627       Completed  Completed  Completed  Completed 
 4 Burkina Faso 7596       Completed  Completed  Completed  Completed 
 5 Burkina Faso 7316       Completed  Completed  Completed  Completed 
 6 Burkina Faso 7559       Completed  Completed  Completed  Completed 
 7 Burkina Faso 7989       Completed  Completed  Completed  Completed 
 8 Burkina Faso 7502       Completed  Completed  Partly co… Completed 
 9 Burkina Faso 7506       Completed  Completed  Completed  Completed 
10 Burkina Faso 7837       Completed  Completed  <NA>       <NA>      
# … with 10,202 more rows
…
Each round of data collection is numbered chronologically, beginning
with the earliest round for the cohort. You’ll find the interview year
for each round in INTSQYEAR.

sdp %>% select(COUNTRY, FACILITYID, starts_with("INTSQYEAR")) 

# A tibble: 10,212 × 6
   COUNTRY  FACILITYID INTSQYEAR_1 INTSQYEAR_2 INTSQYEAR_3 INTSQYEAR_4
   <fct>    <chr+lbl>    <int+lbl>   <int+lbl>   <int+lbl>   <int+lbl>
 1 Burkina… 7298              2014        2015        2016        2016
 2 Burkina… 7399              2014        2015        2016        2017
 3 Burkina… 7627              2014        2015        2016        2016
 4 Burkina… 7596              2014        2015        2016        2017
 5 Burkina… 7316              2014        2015        2016        2017
 6 Burkina… 7559              2014        2015        2016        2017
 7 Burkina… 7989              2014        2015        2016        2016
 8 Burkina… 7502              2014        2015        2016        2016
 9 Burkina… 7506              2014        2015        2016        2016
10 Burkina… 7837              2014        2015          NA          NA
# … with 10,202 more rows
…
The variable INTSQMON
gives the month for each interview.

Each of these ten facilities are members of the same cohort from
Burkina Faso, representing samples collected between 2014 and early
2017. IPUMS has created a unique ID for each cohort in the new variable
SDPCOHORT.
You can obtain a count of the
total number of facilities included across all rounds for each
cohort like so:

sdp %>% count(COUNTRY, SDPCOHORT)

# A tibble: 26 × 3
   COUNTRY                    SDPCOHORT     n
   <fct>                          <dbl> <int>
 1 Burkina Faso                   85401   160
 2 Burkina Faso                   85402   149
 3 Burkina Faso                   85403   247
 4 Congo, Democratic Republic     18001   547
 5 Congo, Democratic Republic     18002   382
 6 Congo, Democratic Republic     18003   234
 7 Congo, Democratic Republic     18004   427
 8 Ethiopia                       23101   570
 9 Ethiopia                       23102   500
10 Ethiopia                       23103   114
# … with 16 more rows

Or, you can group_by
these variables and use summarise
to obtain the total number of facilities interviewed for each
round:

sdp %>% 
  group_by(COUNTRY, SDPCOHORT) %>% 
  summarise(across(
    starts_with("RESULTSQ"), 
    ~sum(!is.na(.x))
  )) 

# A tibble: 26 × 6
# Groups:   COUNTRY [11]
   COUNTRY       SDPCOHORT RESULTSQ_1 RESULTSQ_2 RESULTSQ_3 RESULTSQ_4
   <fct>             <dbl>      <int>      <int>      <int>      <int>
 1 Burkina Faso      85401        106        103        133        131
 2 Burkina Faso      85402        130         98          0          0
 3 Burkina Faso      85403        234        244          0          0
 4 Congo, Democ…     18001        248        245        226          0
 5 Congo, Democ…     18002        171        175        186          0
 6 Congo, Democ…     18003        102        115        124          0
 7 Congo, Democ…     18004        356        375          0          0
 8 Ethiopia          23101        389        400        440        455
 9 Ethiopia          23102        442        470          0          0
10 Ethiopia          23103        111         85          0          0
# … with 16 more rows
…
For example, the second Burkina Faso cohort 85402 contains
only two rounds (sample years 2017-2018).

Individual facilities may enter or exit their cohort any number of
times. For example, it is possible that a facility might complete the
SDP interview once in round one, skip round two, and then re-enter the
same cohort again in round three:

sdp %>% 
  select(COUNTRY, SDPCOHORT, FACILITYID, starts_with("RESULTSQ")) %>% 
  filter(!is.na(RESULTSQ_1) & is.na(RESULTSQ_2) & !is.na(RESULTSQ_3))

# A tibble: 95 × 7
   COUNTRY       SDPCOHORT FACILITYID RESULTSQ_1 RESULTSQ_2 RESULTSQ_3
   <fct>             <dbl> <chr+lbl>  <fct>      <fct>      <fct>     
 1 Burkina Faso      85401 7229       Completed  <NA>       Completed 
 2 Congo, Democ…     18001 5043       Completed  <NA>       Completed 
 3 Congo, Democ…     18001 5082       Completed  <NA>       Completed 
 4 Congo, Democ…     18001 5072       Completed  <NA>       Completed 
 5 Congo, Democ…     18001 5688       Completed  <NA>       Completed 
 6 Congo, Democ…     18001 5355       Completed  <NA>       Completed 
 7 Congo, Democ…     18001 5481       Completed  <NA>       Completed 
 8 Congo, Democ…     18001 5758       Completed  <NA>       Completed 
 9 Congo, Democ…     18001 5649       Completed  <NA>       Completed 
10 Congo, Democ…     18001 5112       Completed  <NA>       Completed 
# … with 85 more rows, and 1 more variable: RESULTSQ_4 <fct>

Open Design: these facilities were sampled in rounds
one and three. They were not included in round two.

Also, a facility may enter the cohort after round one.

sdp %>% 
  select(COUNTRY, SDPCOHORT, FACILITYID, starts_with("RESULTSQ")) %>% 
  filter(is.na(RESULTSQ_1) & !is.na(RESULTSQ_2))

# A tibble: 1,892 × 7
   COUNTRY      SDPCOHORT FACILITYID RESULTSQ_1 RESULTSQ_2 RESULTSQ_3
   <fct>            <dbl> <chr+lbl>  <fct>      <fct>      <fct>     
 1 Burkina Faso     85401 7256       <NA>       Completed  <NA>      
 2 Burkina Faso     85401 7133       <NA>       Completed  <NA>      
 3 Burkina Faso     85402 7840       <NA>       Completed  <NA>      
 4 Burkina Faso     85402 7523       <NA>       Completed  <NA>      
 5 Burkina Faso     85402 7941       <NA>       Completed  <NA>      
 6 Burkina Faso     85402 7434       <NA>       Completed  <NA>      
 7 Burkina Faso     85402 7786       <NA>       Completed  <NA>      
 8 Burkina Faso     85402 7280       <NA>       Completed  <NA>      
 9 Burkina Faso     85402 7135       <NA>       Completed  <NA>      
10 Burkina Faso     85402 7854       <NA>       Completed  <NA>      
# … with 1,882 more rows, and 1 more variable: RESULTSQ_4 <fct>
…
sdp %>% 
  group_by(COUNTRY, SDPCOHORT) %>% 
  summarise(
    across(matches("OBS") | matches("RESULT"), ~sum(!is.na(.x))),
    .groups = "keep"
  ) %>% 
  pivot_longer(
    -c(COUNTRY, SDPCOHORT),
    names_pattern = "(.*)_(.*)",
    names_to = c(".value", "ROUND")
  ) %>% 
  relocate(RESULTSQ, .after = ROUND) %>% 
  filter(RESULTSQ != 0) 

# A tibble: 68 × 23
# Groups:   COUNTRY, SDPCOHORT [26]
   COUNTRY      SDPCOHORT ROUND RESULTSQ CONOBS CYCBOBS DEPOOBS DIAOBS
   <fct>            <dbl> <chr>    <int>  <int>   <int>   <int>  <int>
 1 Burkina Faso     85401 1          106    106     106       0    106
 2 Burkina Faso     85401 2          103    103     103       0    103
 3 Burkina Faso     85401 3          133    133     133       0    133
 4 Burkina Faso     85401 4          131    131     131       0    131
 5 Burkina Faso     85402 1          130    130     130     130    130
 6 Burkina Faso     85402 2           98     98      98      98     98
 7 Burkina Faso     85403 1          234    234     234     234    234
 8 Burkina Faso     85403 2          244    244     244     244    244
 9 Congo, Demo…     18001 1          248    248     248       0    248
10 Congo, Demo…     18001 2          245    245     245       0    245
# … with 58 more rows, and 15 more variables: EMRGOBS <int>,
#   FCOBS <int>, FJOBS <int>, IMPOBS <int>, INJOBS <int>,
#   INJ1OBS <int>, INJ3OBS <int>, IUDOBS <int>, NTABOBS <int>,
#   OTHEROBS <int>, PILLOBS <int>, PROPILLOBS <int>, SAYOBS <int>,
#   MIFEOBS <int>, MISOBS <int>
…
