Trends in Modern Contraceptive Method Mix
…
dat %>% 
  filter(FQWEIGHT > 0) %>% 
  group_by(COUNTRY, INTFQMED) %>% 
  summarise(
    .groups = "keep",
    cur_data() %>% 
      as_survey_design(weights = FQWEIGHT, ids = EAID, strata = STRATA) %>% 
      group_by(MCP = as_factor(MCP), FPCURREFFMETHRC) %>% 
      summarise(survey_mean(prop = TRUE, prop_method = "logit", vartype = "ci"))
  ) 

# A tibble: 288 × 7
# Groups:   COUNTRY, INTFQMED [17]
   COUNTRY      INTFQMED MCP   FPCURREFFMETHRC                      coef    `_low`  `_upp`
   <fct>           <dbl> <fct> <chr>                               <dbl>     <dbl>   <dbl>
 1 Burkina Faso     1379 No    NIU (not in universe)            0.999    0.996     1.00   
 2 Burkina Faso     1379 No    Other traditional                0.000203 0.0000272 0.00151
 3 Burkina Faso     1379 No    Rhythm                           0.000672 0.0000903 0.00497
 4 Burkina Faso     1379 Yes   Diaphragm                        0.00102  0.000134  0.00765
 5 Burkina Faso     1379 Yes   Emergency Contraception          0.00163  0.000220  0.0120 
 6 Burkina Faso     1379 Yes   Female Sterilization             0.00416  0.00128   0.0135 
 7 Burkina Faso     1379 Yes   Implants                         0.436    0.358     0.518  
 8 Burkina Faso     1379 Yes   Injectables (3 months)           0.363    0.287     0.446  
 9 Burkina Faso     1379 Yes   IUD                              0.0194   0.00836   0.0445 
10 Burkina Faso     1379 Yes   Male condom                      0.0349   0.0157    0.0758 
11 Burkina Faso     1379 Yes   Pill                             0.134    0.0986    0.181  
12 Burkina Faso     1379 Yes   Standard Days/Cycle Beads Method 0.00544  0.00204   0.0144 
13 Burkina Faso     1385 No    NIU (not in universe)            0.989    0.982     0.993  
14 Burkina Faso     1385 No    No response or missing           0.000221 0.0000294 0.00166
15 Burkina Faso     1385 No    Other traditional                0.00121  0.000306  0.00478
16 Burkina Faso     1385 No    Rhythm                           0.00848  0.00514   0.0139 
17 Burkina Faso     1385 No    Withdrawal                       0.00157  0.000502  0.00493
18 Burkina Faso     1385 Yes   Emergency Contraception          0.00463  0.00172   0.0124 
19 Burkina Faso     1385 Yes   Female condom                    0.00287  0.000652  0.0126 
20 Burkina Faso     1385 Yes   Female Sterilization             0.00373  0.00123   0.0113 
# … with 268 more rows
# ℹ Use `print(n = ...)` to see more rows
…
mix_tbl <- dat %>% 
  filter(FQWEIGHT > 0) %>% 
  group_by(COUNTRY, INTFQMED) %>% 
  summarise(
    .groups = "keep",
    cur_data() %>% 
      as_survey_design(weights = FQWEIGHT, ids = EAID, strata = STRATA) %>% 
      group_by(MCP = as_factor(MCP), FPCURREFFMETHRC) %>% 
      summarise(survey_mean(prop = TRUE, prop_method = "logit", vartype = "ci"))
  ) %>% 
  filter(MCP == "Yes")

mix_tbl

# A tibble: 131 × 7
# Groups:   COUNTRY, INTFQMED [17]
   COUNTRY      INTFQMED MCP   FPCURREFFMETHRC            coef   `_low` `_upp`
   <fct>           <dbl> <fct> <fct>                     <dbl>    <dbl>  <dbl>
 1 Burkina Faso     1379 Yes   Other modern methods    0.0106  0.00517  0.0217
 2 Burkina Faso     1379 Yes   Emergency contraception 0.00163 0.000220 0.0120
 3 Burkina Faso     1379 Yes   Implant                 0.436   0.358    0.518 
 4 Burkina Faso     1379 Yes   Injectable (IM)         0.363   0.287    0.446 
 5 Burkina Faso     1379 Yes   IUD                     0.0194  0.00836  0.0445
 6 Burkina Faso     1379 Yes   Male condom             0.0349  0.0157   0.0758
 7 Burkina Faso     1379 Yes   Pill                    0.134   0.0986   0.181 
 8 Burkina Faso     1385 Yes   Other modern methods    0.0138  0.00680  0.0278
 9 Burkina Faso     1385 Yes   Emergency contraception 0.00463 0.00172  0.0124
10 Burkina Faso     1385 Yes   Implant                 0.367   0.272    0.473 
11 Burkina Faso     1385 Yes   Injectable (IM)         0.333   0.226    0.459 
12 Burkina Faso     1385 Yes   IUD                     0.0383  0.0194   0.0742
13 Burkina Faso     1385 Yes   Male condom             0.114   0.0744   0.169 
14 Burkina Faso     1385 Yes   Pill                    0.130   0.0947   0.177 
15 Burkina Faso     1395 Yes   Other modern methods    0.00325 0.000656 0.0159
16 Burkina Faso     1395 Yes   Emergency contraception 0.00502 0.00215  0.0117
17 Burkina Faso     1395 Yes   Implant                 0.444   0.382    0.508 
18 Burkina Faso     1395 Yes   Injectable (IM)         0.261   0.194    0.341 
19 Burkina Faso     1395 Yes   Injectable (SC)         0.0477  0.0297   0.0756
20 Burkina Faso     1395 Yes   IUD                     0.0203  0.0120   0.0342
# … with 111 more rows
# ℹ Use `print(n = ...)` to see more rows
…
mar_tbl

# A tibble: 255 × 6
# Groups:   COUNTRY, INTFQMED [17]
   COUNTRY      INTFQMED MARSTAT                 MCP   FPCURREFFMETHRC            coef
   <fct>           <dbl> <fct>                   <fct> <fct>                     <dbl>
 1 Burkina Faso     1379 Not Married / Partnered Yes   Other modern methods    0.0258 
 2 Burkina Faso     1379 Not Married / Partnered Yes   Emergency contraception 0.0191 
 3 Burkina Faso     1379 Not Married / Partnered Yes   Implant                 0.262  
 4 Burkina Faso     1379 Not Married / Partnered Yes   Injectable (IM)         0.195  
 5 Burkina Faso     1379 Not Married / Partnered Yes   IUD                     0.0516 
 6 Burkina Faso     1379 Not Married / Partnered Yes   Male condom             0.359  
 7 Burkina Faso     1379 Not Married / Partnered Yes   Pill                    0.0870 
 8 Burkina Faso     1379 Married / Partnered     Yes   Other modern methods    0.00920
 9 Burkina Faso     1379 Married / Partnered     Yes   Implant                 0.453  
10 Burkina Faso     1379 Married / Partnered     Yes   Injectable (IM)         0.378  
11 Burkina Faso     1379 Married / Partnered     Yes   IUD                     0.0164 
12 Burkina Faso     1379 Married / Partnered     Yes   Male condom             0.00457
13 Burkina Faso     1379 Married / Partnered     Yes   Pill                    0.139  
14 Burkina Faso     1385 Not Married / Partnered Yes   Other modern methods    0.0166 
15 Burkina Faso     1385 Not Married / Partnered Yes   Emergency contraception 0.0113 
16 Burkina Faso     1385 Not Married / Partnered Yes   Implant                 0.229  
17 Burkina Faso     1385 Not Married / Partnered Yes   Injectable (IM)         0.116  
18 Burkina Faso     1385 Not Married / Partnered Yes   IUD                     0.0112 
19 Burkina Faso     1385 Not Married / Partnered Yes   Male condom             0.480  
20 Burkina Faso     1385 Not Married / Partnered Yes   Pill                    0.136  
# … with 235 more rows
# ℹ Use `print(n = ...)` to see more rows
…
