Survival Analysis with Survey Weights
…
Additionally, we’ve included a two variables describing 1) each woman’s family planning intentions at Phase 1 and 2) her monthly family planning status reported on the Phase 2 Contraceptive Calendar.

FPPLANYR indicates whether the woman indicated at Phase 1 that she was not currently using a method, but planned to adopt one by Phase 2 (one year later). All cases are either TRUE (non-user with plans to adopt) or FALSE (e.g. Phase 1 users, or Phase 1 non-users with no such plans). Derived from FPPLANWHEN and FPPLANVAL.

FPSTATUS indicates the woman’s recalled family planning status for each month between Phase 1 and her Phase 2 interview (approximately 12 months later).

Since we’re working with a dataset created in a previous session, we’ll load it with read_rds from the tidyverse. We’ll also load survey (along with its tidy-helper srvyr). The survival package is listed as a dependency for survey, so it is attched automatically.

library(tidyverse)
library(survey)
library(srvyr)
dat <- read_rds("data/dat.rds")

# A tibble: 208,098 × 10
# Groups:   ID [17,725]
      ID POP          PANELWEIGHT      EAID STRATA CALSTART CALSTOP CALCMC FPPLANYR FPSTATUS
   <int> <chr>              <dbl>     <dbl>  <int>    <dbl>   <dbl>  <dbl> <lgl>    <chr>   
 1     1 Burkina Faso        2.50 854111005  85402     1442    1453   1453 TRUE     3       
 2     1 Burkina Faso        2.50 854111005  85402     1442    1453   1452 TRUE     3       
 3     1 Burkina Faso        2.50 854111005  85402     1442    1453   1451 TRUE     3       
 4     1 Burkina Faso        2.50 854111005  85402     1442    1453   1450 TRUE     3       
 5     1 Burkina Faso        2.50 854111005  85402     1442    1453   1449 TRUE     3       
 6     1 Burkina Faso        2.50 854111005  85402     1442    1453   1448 TRUE     3       
 7     1 Burkina Faso        2.50 854111005  85402     1442    1453   1447 TRUE     0       
 8     1 Burkina Faso        2.50 854111005  85402     1442    1453   1446 TRUE     0       
 9     1 Burkina Faso        2.50 854111005  85402     1442    1453   1445 TRUE     0       
10     1 Burkina Faso        2.50 854111005  85402     1442    1453   1444 TRUE     0       
11     1 Burkina Faso        2.50 854111005  85402     1442    1453   1443 TRUE     0       
12     1 Burkina Faso        2.50 854111005  85402     1442    1453   1442 TRUE     0       
13     2 Burkina Faso        2.61 854111004  85402     1441    1452   1452 FALSE    5       
14     2 Burkina Faso        2.61 854111004  85402     1441    1452   1451 FALSE    5       
15     2 Burkina Faso        2.61 854111004  85402     1441    1452   1450 FALSE    5       
# … with 208,083 more rows
…
T Termination of pregnancy

0 No pregnancy and no family planning method used

We’ll build a binary indicator for USE of any method, as indicated by any value except for these codes. (For the moment, our data contain placeholder NA values for women with incomplete Phase 2 calendars).

dat <- dat %>% 
  rowwise() %>% 
  mutate(USE = !any(FPSTATUS == c("0", "P", "B", "T")))

Our analysis will compare time to adoption for Phase 1 non-users like the woman at the top of our dataset (ID == 1). FPPLANYR shows that she reported plans to adopt a method within 12 months after the Phase 1 interview, and the Phase 2 calendar data in FPSTATUS shows that she did so just 6 months later. We should hypothesize that women with plans probably adopt a method sooner, on average, compared with women who had no plans.

dat 

# A tibble: 208,098 × 11
# Rowwise:  ID
      ID POP          PANELWEIGHT      EAID STRATA CALSTART CALSTOP CALCMC FPPLANYR FPSTATUS USE  
   <int> <chr>              <dbl>     <dbl>  <int>    <dbl>   <dbl>  <dbl> <lgl>    <chr>    <lgl>
 1     1 Burkina Faso        2.50 854111005  85402     1442    1453   1453 TRUE     3        TRUE 
 2     1 Burkina Faso        2.50 854111005  85402     1442    1453   1452 TRUE     3        TRUE 
 3     1 Burkina Faso        2.50 854111005  85402     1442    1453   1451 TRUE     3        TRUE 
 4     1 Burkina Faso        2.50 854111005  85402     1442    1453   1450 TRUE     3        TRUE 
 5     1 Burkina Faso        2.50 854111005  85402     1442    1453   1449 TRUE     3        TRUE 
 6     1 Burkina Faso        2.50 854111005  85402     1442    1453   1448 TRUE     3        TRUE 
 7     1 Burkina Faso        2.50 854111005  85402     1442    1453   1447 TRUE     0        FALSE
 8     1 Burkina Faso        2.50 854111005  85402     1442    1453   1446 TRUE     0        FALSE
 9     1 Burkina Faso        2.50 854111005  85402     1442    1453   1445 TRUE     0        FALSE
10     1 Burkina Faso        2.50 854111005  85402     1442    1453   1444 TRUE     0        FALSE
11     1 Burkina Faso        2.50 854111005  85402     1442    1453   1443 TRUE     0        FALSE
12     1 Burkina Faso        2.50 854111005  85402     1442    1453   1442 TRUE     0        FALSE
13     2 Burkina Faso        2.61 854111004  85402     1441    1452   1452 FALSE    5        TRUE 
14     2 Burkina Faso        2.61 854111004  85402     1441    1452   1451 FALSE    5        TRUE 
15     2 Burkina Faso        2.61 854111004  85402     1441    1452   1450 FALSE    5        TRUE 
# … with 208,083 more rows
…
dat <- dat %>% 
  group_by(ID) %>% 
  mutate(
    USEMO = case_when(USE ~ CALCMC),
    KEEP = ifelse(any(USE), min(USEMO, na.rm = TRUE), max(CALCMC))
  ) %>% 
  filter(KEEP == CALCMC) %>% 
  mutate(.before = USE, MONTH = CALCMC - CALSTART) %>% 
  select(-c(starts_with("CAL"), starts_with("FP"), USEMO, KEEP)) %>% 
  ungroup()

dat 

# A tibble: 17,725 × 8
      ID POP          PANELWEIGHT      EAID STRATA MONTH USE   INTENT 
   <int> <chr>              <dbl>     <dbl>  <int> <dbl> <lgl> <chr>  
 1     1 Burkina Faso       2.50  854111005  85402     6 TRUE  Plan   
 2     2 Burkina Faso       2.61  854111004  85402     3 TRUE  No Plan
 3     3 Burkina Faso       3.21  854161007  85402    12 FALSE No Plan
 4     4 Burkina Faso       0.538 854141008  85401    11 FALSE No Plan
 5     5 Burkina Faso       0.358 854191022  85402     0 FALSE Plan   
 6     6 Burkina Faso       3.20  854141002  85402    12 FALSE No Plan
 7     7 Burkina Faso       0.404 854131034  85401    11 FALSE No Plan
 8     8 Burkina Faso       0.314 854191036  85402    11 FALSE No Plan
 9     9 Burkina Faso       0.337 854121003  85401     0 TRUE  User   
10    10 Burkina Faso       2.55  854231003  85402     0 FALSE No Plan
11    11 Burkina Faso       0.221 854111006  85401     9 TRUE  No Plan
12    12 Burkina Faso       0.478 854191025  85402     0 TRUE  User   
13    13 Burkina Faso       0.412 854191026  85402     0 TRUE  User   
14    14 Burkina Faso       0.404 854191013  85402     0 TRUE  User   
15    15 Burkina Faso       0.395 854131021  85401     0 TRUE  User   
# … with 17,710 more rows
…
Error: No tidy method for objects of class svykmlist

You can think about ke_survey as a kind of special list, with one element per group in INTENT. Each of those elements also has a list-like structure with vectors representing time (months), surv (survival probability), and standard error (if specified). For example, you can use list-syntax to check that the monthly estimates in ke_survey match those in ke_survival for women who planned to adopt a method:

ke_survey$Plan$surv %>% round(3)

 [1] 1.000 1.000 0.952 0.896 0.819 0.761 0.701 0.654 0.594 0.560 0.520 0.480 0.454 0.438 0.425

We’ll want to compile all of these lists in a tibble, which we’ll demonstrate with the new recommended workflow for map with purrr version 1.0.0. (We now use list_rbind in place of map_dfr, which has been superseded).

ke_survey %>% 
  imap(~c(.x) %>% as_tibble() %>% mutate(strata = .y)) %>% 
  list_rbind() 

# A tibble: 32 × 3
    time  surv strata 
   <dbl> <dbl> <chr>  
 1     0 1     No Plan
 2     0 1     No Plan
 3     1 0.981 No Plan
 4     2 0.966 No Plan
 5     3 0.957 No Plan
 6     4 0.942 No Plan
 7     5 0.933 No Plan
 8     6 0.919 No Plan
 9     7 0.907 No Plan
10     8 0.894 No Plan
11     9 0.880 No Plan
12    10 0.865 No Plan
13    11 0.855 No Plan
14    12 0.842 No Plan
15    13 0.842 No Plan
# … with 17 more rows

We’ll ultimately want cluster-robust standard error estimates for each month, so this output isn’t very useful on its own. Instead, we’ll specify se = TRUE in svykm. Just make sure to drop women who were originally using a method at Phase 1: the estimated standard error for these cases is infinite in month 0, and R will likely stall if you don’t exclude them from svykm! We’ll do this after our call to as_survey_design in order to preserve the correct sample size.

ke_survey <- dat %>% 
  filter(POP == "Kenya") %>% 
  mutate(w = 1) %>% 
  as_survey_design(weight = w) %>% 
  filter(INTENT != "User") %>% # remove baseline users 
  svykm(Surv(MONTH, USE) ~ INTENT, design = ., se = TRUE) %>% # add se = TRUE
  imap(~c(.x) %>% as_tibble() %>% mutate(strata = .y)) %>% 
  list_rbind() 

ke_survey

# A tibble: 747 × 4
    time  surv      varlog strata 
   <dbl> <dbl>       <dbl> <chr>  
 1     1 1.00  0.000000134 No Plan
 2     1 0.999 0.000000269 No Plan
 3     1 0.999 0.000000403 No Plan
 4     1 0.999 0.000000537 No Plan
 5     1 0.998 0.000000671 No Plan
 6     1 0.998 0.000000805 No Plan
 7     1 0.997 0.000000938 No Plan
 8     1 0.997 0.00000107  No Plan
 9     1 0.997 0.00000121  No Plan
10     1 0.996 0.00000134  No Plan
11     1 0.996 0.00000147  No Plan
12     1 0.996 0.00000161  No Plan
13     1 0.995 0.00000174  No Plan
14     1 0.995 0.00000187  No Plan
15     1 0.995 0.00000200  No Plan
# … with 732 more rows
…
We also use summarise here to obtain just one estimate per month. When you use se = TRUE, svykm generates one row for each case that experienced the event.

ke_survey <- ke_survey %>% 
  group_by(strata, time) %>% 
  summarise(
    n.event = n(),
    estimate = min(surv),
    std.error = sqrt(varlog) %>% min(),
    conf.high = exp(log(estimate) - std.error * qnorm(0.05/2)),
    conf.low = exp(log(estimate) + std.error * qnorm(0.05/2))
  )

ke_survey

# A tibble: 25 × 7
# Groups:   strata [2]
   strata   time n.event estimate std.error conf.high conf.low
   <chr>   <dbl>   <int>    <dbl>     <dbl>     <dbl>    <dbl>
 1 No Plan     1      53    0.981  0.000367     0.981    0.980
 2 No Plan     2      41    0.966  0.00267      0.971    0.961
 3 No Plan     3      24    0.957  0.00357      0.964    0.950
 4 No Plan     4      40    0.943  0.00403      0.950    0.935
 5 No Plan     5      26    0.933  0.00469      0.942    0.925
 6 No Plan     6      36    0.920  0.00509      0.929    0.911
 7 No Plan     7      34    0.908  0.00560      0.918    0.898
 8 No Plan     8      36    0.894  0.00606      0.905    0.884
 9 No Plan     9      37    0.881  0.00652      0.892    0.870
10 No Plan    10      40    0.866  0.00698      0.878    0.855
11 No Plan    11      28    0.856  0.00745      0.869    0.844
12 No Plan    12      24    0.843  0.00779      0.856    0.830
13 Plan        1      28    0.953  0.00171      0.957    0.950
14 Plan        2      33    0.899  0.00899      0.915    0.883
15 Plan        3      45    0.825  0.0135       0.847    0.803
# … with 10 more rows
…
ke_survey

# A tibble: 29 × 10
# Groups:   strata [3]
   strata   time     n n.risk n.event estimate std.error conf.high conf.low n.censor
   <chr>   <dbl> <int>  <int>   <int>    <dbl>     <dbl>     <dbl>    <dbl>    <int>
 1 No Plan     0   269   2997       0    1      0            1        1          269
 2 No Plan     1    53   2728      53    0.981  0.000367     0.981    0.980        0
 3 No Plan     2    41   2944      41    0.966  0.00267      0.971    0.961        0
 4 No Plan     3    24   2956      24    0.957  0.00357      0.964    0.950        0
 5 No Plan     4    40   2973      40    0.943  0.00403      0.950    0.935        0
 6 No Plan     5    26   2957      26    0.933  0.00469      0.942    0.925        0
 7 No Plan     6    36   2971      36    0.920  0.00509      0.929    0.911        0
 8 No Plan     7    34   2961      34    0.908  0.00560      0.918    0.898        0
 9 No Plan     8    36   2963      36    0.894  0.00606      0.905    0.884        0
10 No Plan     9    37   2961      37    0.881  0.00652      0.892    0.870        0
11 No Plan    10    40   2960      40    0.866  0.00698      0.878    0.855        0
12 No Plan    11   810   2957      28    0.856  0.00745      0.869    0.844      782
13 No Plan    12  1360   2187      24    0.843  0.00779      0.856    0.830     1336
14 No Plan    13   191   1637       0    0.843  0.00779      0.856    0.830      191
15 Plan        0    90    676       0    1      0            1        1           90
# … with 14 more rows
…
ke_survey

# A tibble: 29 × 10
# Groups:   strata [3]
   strata   time     n n.risk n.event estimate std.error conf.high conf.low n.censor
   <chr>   <dbl> <int>  <int>   <int>    <dbl>     <dbl>     <dbl>    <dbl>    <int>
 1 No Plan     0   269   2997       0    1      0            1        1          269
 2 No Plan     1    53   2728      53    0.981  0.000201     0.982    0.981        0
 3 No Plan     2    41   2944      41    0.965  0.00279      0.971    0.960        0
 4 No Plan     3    24   2956      24    0.958  0.00418      0.966    0.950        0
 5 No Plan     4    40   2973      40    0.942  0.00487      0.951    0.933        0
 6 No Plan     5    26   2957      26    0.934  0.00556      0.944    0.924        0
 7 No Plan     6    36   2971      36    0.920  0.00583      0.931    0.910        0
 8 No Plan     7    34   2961      34    0.907  0.00689      0.920    0.895        0
 9 No Plan     8    36   2963      36    0.898  0.00767      0.911    0.884        0
10 No Plan     9    37   2961      37    0.883  0.00808      0.897    0.869        0
11 No Plan    10    40   2960      40    0.869  0.00886      0.884    0.854        0
12 No Plan    11   810   2957      28    0.860  0.00982      0.876    0.843      782
13 No Plan    12  1360   2187      24    0.845  0.0103       0.862    0.828     1336
14 No Plan    13   191   1637       0    0.845  0.0103       0.862    0.828      191
15 Plan        0    90    676       0    1      0            1        1           90
# … with 14 more rows
…
dat_surv

# A tibble: 175 × 11
   POP          strata   time     n n.risk n.event estimate std.error conf.high conf.low n.censor
   <chr>        <chr>   <dbl> <int>  <int>   <int>    <dbl>     <dbl>     <dbl>    <dbl>    <int>
 1 Burkina Faso No Plan     0   348   2686       0    1      0            1        1          348
 2 Burkina Faso No Plan     1    30   2338      30    0.990  0.000334     0.990    0.989        0
 3 Burkina Faso No Plan     2    20   2656      20    0.984  0.00304      0.990    0.979        0
 4 Burkina Faso No Plan     3    16   2666      16    0.977  0.00424      0.985    0.969        0
 5 Burkina Faso No Plan     4    22   2670      22    0.967  0.00500      0.976    0.957        0
 6 Burkina Faso No Plan     5    16   2664      16    0.958  0.00617      0.970    0.947        0
 7 Burkina Faso No Plan     6    18   2670      18    0.952  0.00666      0.964    0.940        0
 8 Burkina Faso No Plan     7    22   2668      22    0.943  0.00751      0.957    0.929        0
 9 Burkina Faso No Plan     8    17   2664      17    0.937  0.00783      0.952    0.923        0
10 Burkina Faso No Plan     9    32   2669      32    0.927  0.00820      0.942    0.912        0
11 Burkina Faso No Plan    10   152   2654      39    0.911  0.00936      0.928    0.895      113
12 Burkina Faso No Plan    11  1100   2534      29    0.902  0.0103       0.920    0.884     1071
13 Burkina Faso No Plan    12   783   1586       7    0.894  0.0116       0.915    0.874      776
14 Burkina Faso No Plan    13    84   1903       3    0.879  0.0131       0.902    0.857       81
15 Burkina Faso No Plan    14    26   2602       0    0.879  0.0131       0.902    0.857       26
# … with 160 more rows
…
