Building an IPUMS PMA Codebook
…
You can access all of the .xml metadata for PREGENDEV with the functions ipums_val_labels, ipums_var_label, and ipums_var_desc, or you can combine them into a tabular data dictionary with the function ipums_var_info. Let’s call this table dd.

dd <- dat %>% ipums_var_info()
dd

# A tibble: 95 × 4
   var_name   var_label                                         var_d…¹ val_la…²
   <chr>      <chr>                                             <chr>   <list>  
 1 SAMPLE     PMA sample number                                 "SAMPL… <tibble>
 2 COUNTRY    PMA country                                       "COUNT… <tibble>
 3 YEAR       Year                                              "YEAR … <tibble>
 4 ROUND      PMA survey round in this country                  "ROUND… <tibble>
 5 PERSONID   Unique person ID number                           "PERSO… <tibble>
 6 ELIGIBLE   Eligible female respondent                        "ELIGI… <tibble>
 7 EAID       Enumeration area                                  "EAID … <tibble>
 8 CONSENTFQ  Female respondent provided consent to be intervi… "CONSE… <tibble>
 9 FQINSTID   Unique ID for female questionnaire                "FQINS… <tibble>
10 CONSENTHQ  Household respondent provided consent to be inte… "CONSE… <tibble>
11 FQWEIGHT   Female weight                                     "FQWEI… <tibble>
12 STRATA     Strata                                            "STRAT… <tibble>
13 PREGENDEV  Ever had a pregnancy that miscarried, aborted, o… "PREGE… <tibble>
14 PREGEND    Had pregnancy that ended in last 3 yrs            "PREGE… <tibble>
15 ABORYRSAGO Number of years ago pregnancy ended               "ABORY… <tibble>
16 PREGENDYR  Year last pregnancy was terminated                "For w… <tibble>
17 PREGENDMO  Month last pregnancy was terminated               "For w… <tibble>
18 ABORWHERE  Where abortion was performed                      "ABORW… <tibble>
19 ABOREV     Ever aborted pregnancy                            "ABORE… <tibble>
20 ABORMON    Month of last aborted pregnancy                   "ABORM… <tibble>
# … with 75 more rows, and abbreviated variable names ¹​var_desc, ²​val_labels
…
