Data Analysis Hub: Unmet need for family planning after internal migration
…
Controlling for all of the covariates we’ve discussed, the authors find that rural-urban internal migrants are less likely than both urban and rural non-migrants to experience unmet need for family planning!

How do we identify this finding in the model output? Notice that the estimated odds of experiencing UNMETYN for rural to urban migrants is 0.75, and that the associated 95% confidence interval ranges from 0.59 to 0.95: this represents the migrants’ odds compared to urban non-migrants. If the 95% confidence interval included the value 1.0, we would say that there’s more than a 5% chance that the migrants’ odds could be equal to the odds experienced by urban non-migrants. Because it does not include 1.0, we instead say that there’s a statistically significant difference between the two groups (at the 5% confidence threshold).

Because the authors selected urban non-migrants as a reference group, our model output shows the relationship between rural non-migrants and rural-urban migrants a bit less clearly. Although the point estimate for rural to urban migrants (0.75) is lower than the point estimate for nonmigrant - rural (1.15), their respective confidence intervals overlap. In order to see that they actually are statistically different, we’d need to run the model again with a different reference group.

Predicted Probabilities

While the output from our logistic regression model helps show the relative difference between groups, we’re not yet able to predict the absolute risk of UNMETYN for each group. Recall that, before building our model, we calculated that the average unmet need for all women in Ethiopia (excluding external migrants, infertile women, etc) was about 15.7%. We’ll now estimate the average unmet need experienced by all women in Ethiopia sorted into the three groups represented by MIGRANT_DIR.

The predict function allows us to make a prediction about each woman’s likelihood of experiencing unmet need according to the model m1. When we tell predict to return type = "response", it gives us the predicted probability that each woman should have UNMETYN.

tibble(predicted = predict(m1, type = "response"))

# A tibble: 12,630 × 1
   predicted  
   <svystat>  
 1 0.072659141
 2 0.338704987
 3 0.033291206
 4 0.376765517
 5 0.025819303
 6 0.528723102
 7 0.009790659
 8 0.088323159
 9 0.044348246
10 0.027093896
# … with 12,620 more rows

If we wanted to compare each individual’s predicted probability to the value they actually do have for UNMETYN, we could attach our prediction back to our dataset. Remember that the original UNMETYN variable is binary, whereas the predictions are continuous probabilities that range from 0 to 1. Here, we hope to see that women whose predicted probability exceeds 0.50 have UNMETYN == 1, while those whose predicted probability is less than 0.50 have UNMETYN == 0:

tibble(predicted = predict(m1, type = "response")) %>% 
  bind_cols(dat) %>% 
  select(predicted, UNMETYN) 

# A tibble: 12,630 × 2
   predicted             UNMETYN
   <svystat>           <int+lbl>
 1 0.072659141 0 [No unmet need]
 2 0.338704987 0 [No unmet need]
 3 0.033291206 0 [No unmet need]
 4 0.376765517 0 [No unmet need]
 5 0.025819303 0 [No unmet need]
 6 0.528723102 1 [Unmet need]   
 7 0.009790659 0 [No unmet need]
 8 0.088323159 0 [No unmet need]
 9 0.044348246 0 [No unmet need]
10 0.027093896 0 [No unmet need]
# … with 12,620 more rows
…
boots_dat

# A tibble: 100 × 3
      id splits                 model   
   <dbl> <list>                 <list>  
 1     1 <tibble [12,630 × 38]> <svyglm>
 2     2 <tibble [12,630 × 38]> <svyglm>
 3     3 <tibble [12,630 × 38]> <svyglm>
 4     4 <tibble [12,630 × 38]> <svyglm>
 5     5 <tibble [12,630 × 38]> <svyglm>
 6     6 <tibble [12,630 × 38]> <svyglm>
 7     7 <tibble [12,630 × 38]> <svyglm>
 8     8 <tibble [12,630 × 38]> <svyglm>
 9     9 <tibble [12,630 × 38]> <svyglm>
10    10 <tibble [12,630 × 38]> <svyglm>
# … with 90 more rows
…
boots_dat

# A tibble: 300 × 5
      id splits                 model    MIGRANT_DIR        predicted
   <dbl> <list>                 <list>   <chr>                  <dbl>
 1     1 <tibble [12,630 × 38]> <svyglm> nonmigrant - urban    0.151 
 2     1 <tibble [12,630 × 38]> <svyglm> nonmigrant - rural    0.163 
 3     1 <tibble [12,630 × 38]> <svyglm> rural to urban        0.112 
 4     2 <tibble [12,630 × 38]> <svyglm> nonmigrant - urban    0.149 
 5     2 <tibble [12,630 × 38]> <svyglm> nonmigrant - rural    0.155 
 6     2 <tibble [12,630 × 38]> <svyglm> rural to urban        0.0840
 7     3 <tibble [12,630 × 38]> <svyglm> nonmigrant - urban    0.142 
 8     3 <tibble [12,630 × 38]> <svyglm> nonmigrant - rural    0.155 
 9     3 <tibble [12,630 × 38]> <svyglm> rural to urban        0.133 
10     4 <tibble [12,630 × 38]> <svyglm> nonmigrant - urban    0.133 
# … with 290 more rows
…
