Contraceptive Calendar Data in PMA Panel Surveys
…
Now, let’s take a look at the calendar variables we want to merge.
You’ll only find responses in the calendar for the country in which a
woman resides. The other calendars in her row will appear as an empty
character string, the value "". For example, notice that
the variable CALENDARKE_1 is blank for these women from
Burkina Faso:

dat %>% 
  filter(COUNTRY == "BF") %>% 
  select(ID, COUNTRY, CALENDARBF_1, CALENDARKE_1)

# A tibble: 5,208 × 4
      ID COUNTRY CALENDARBF_1                                       CALENDARKE_1
   <int> <fct>   <chr+lbl>                                          <chr+lbl>   
 1     1 BF      ,,,,,,,,,,0,0,0,0,0,0,0,0,0,0,0,0,B,P,P,P,P,P,P,P… ""          
 2     2 BF      ,,,,,,,,,,,P,P,P,P,P,P,P,0,0,0,0,0,0,0,3,3,3,3,3,… ""          
 3     3 BF      ,,,,,,,,,,,0,0,0,0,0,0,0,0,0,0,0,0,0,0,0,0,0,0,0,… ""          
 4     4 BF      ,,,,,,,,,,,0,0,0,5,5,5,5,5,5,5,5,5,5,5,0,0,0,0,0,… ""          
 5     5 BF      ,,,,,,,,,,,0,0,0,0,0,0,0,0,0,0,0,0,0,0,0,0,0,0,0,… ""          
 6     6 BF      ,,,,,,,,,,,0,0,0,0,0,0,0,0,0,0,0,0,0,0,0,0,0,0,0,… ""          
 7     7 BF      ,,,,,,,,,,,0,0,0,0,0,0,0,0,0,0,0,0,0,T,P,P,P,P,P,… ""          
 8     8 BF      ,,,,,,,,,,,B,P,P,P,P,P,P,P,P,P,0,0,0,0,0,0,0,0,0,… ""          
 9     9 BF      ,,,,,,,,,,,,3,3,3,3,3,3,3,3,3,3,3,3,3,3,3,3,3,3,3… ""          
10    10 BF      ,,,,,,,,,,,0,0,0,0,0,0,0,0,0,0,0,0,0,0,0,0,0,0,0,… ""          
# … with 5,198 more rows
…
cals <- cals %>% 
  pivot_longer(
    cols = starts_with("CAL"),
    names_pattern = "(.*)_(.*)",
    names_to = c(".value", "PHASE")
  )

cals 

# A tibble: 35,424 × 13
      ID COUNTRY PHASE CALENDARBF         CALENDARBFWHY CALENDARKE CALENDARKEWHY
   <int> <fct>   <chr> <chr+lbl>          <chr+lbl>     <chr+lbl>  <chr+lbl>    
 1     1 BF      1     ",,,,,,,,,,0,0,0,… ",,,,,,,,,,,… ""         ""           
 2     1 BF      2     ",,,,,,,,,,,3,3,3… ",,,,,,,,,,,… ""         ""           
 3     2 BF      1     ",,,,,,,,,,,P,P,P… ",,,,,,,,,,,… ""         ""           
 4     2 BF      2     ",,,,,,,,,,,,5,5,… ",,,,,,,,,,,… ""         ""           
 5     3 BF      1     ",,,,,,,,,,,0,0,0… ""            ""         ""           
 6     3 BF      2     ""                 ""            ""         ""           
 7     4 BF      1     ",,,,,,,,,,,0,0,0… ",,,,,,,,,,,… ""         ""           
 8     4 BF      2     ",,,,,,,,,,,,0,0,… ",,,,,,,,,,,… ""         ""           
 9     5 BF      1     ",,,,,,,,,,,0,0,0… ",,,,,,,,,,,… ""         ""           
10     5 BF      2     ""                 ""            ""         ""           
# … with 35,414 more rows, and 6 more variables: CALENDARNG <chr+lbl>,
#   CALENDARNGWHY <chr+lbl>, CALENDARCD <chr+lbl>, CALENDARCDWHY <chr+lbl>,
#   CALSTART <dbl>, CALSTOP <dbl>
…
Now, each woman occupies eight rows (4 country calendars per phase).
We’ve also stripped the 2-letter country code from each calendar name to
create COUNTRY_CAL: this indicates the country associated
with each calendar.

cals 

# A tibble: 141,696 × 8
      ID COUNTRY PHASE CALSTART CALSTOP COUNTRY_CAL FPSTATUS             WHYSTOP
   <int> <fct>   <chr>    <dbl>   <dbl> <chr>       <chr+lbl>            <chr+l>
 1     1 BF      1         1417    1442 BF          ",,,,,,,,,,0,0,0,0,… ",,,,,…
 2     1 BF      1         1417    1442 KE          ""                   ""     
 3     1 BF      1         1417    1442 NG          ""                   ""     
 4     1 BF      1         1417    1442 CD          ""                   ""     
 5     1 BF      2         1417    1453 BF          ",,,,,,,,,,,3,3,3,3… ",,,,,…
 6     1 BF      2         1417    1453 KE          ""                   ""     
 7     1 BF      2         1417    1453 NG          ""                   ""     
 8     1 BF      2         1417    1453 CD          ""                   ""     
 9     2 BF      1         1417    1441 BF          ",,,,,,,,,,,P,P,P,P… ",,,,,…
10     2 BF      1         1417    1441 KE          ""                   ""     
# … with 141,686 more rows

Lastly, we can drop any row where COUNTRY does not match
the value in COUNTRY_CAL:

cals <- cals %>% 
  filter(COUNTRY_CAL == COUNTRY) %>% 
  select(-COUNTRY_CAL)

cals 

# A tibble: 35,424 × 7
      ID COUNTRY PHASE CALSTART CALSTOP FPSTATUS                         WHYSTOP
   <int> <fct>   <chr>    <dbl>   <dbl> <chr+lbl>                        <chr+l>
 1     1 BF      1         1417    1442 ",,,,,,,,,,0,0,0,0,0,0,0,0,0,0,… ",,,,,…
 2     1 BF      2         1417    1453 ",,,,,,,,,,,3,3,3,3,3,3,0,0,0,0… ",,,,,…
 3     2 BF      1         1417    1441 ",,,,,,,,,,,P,P,P,P,P,P,P,0,0,0… ",,,,,…
 4     2 BF      2         1417    1453 ",,,,,,,,,,,,5,5,5,5,5,5,5,5,5,… ",,,,,…
 5     3 BF      1         1417    1441 ",,,,,,,,,,,0,0,0,0,0,0,0,0,0,0… ""     
 6     3 BF      2         1417    1453 ""                               ""     
 7     4 BF      1         1417    1441 ",,,,,,,,,,,0,0,0,5,5,5,5,5,5,5… ",,,,,…
 8     4 BF      2         1417    1452 ",,,,,,,,,,,,0,0,0,0,0,0,0,0,0,… ",,,,,…
 9     5 BF      1         1417    1441 ",,,,,,,,,,,0,0,0,0,0,0,0,0,0,0… ",,,,,…
10     5 BF      2         1417    1453 ""                               ""     
# … with 35,414 more rows
…
cals <- dat %>% 
  select(
    ID, matches("CMC") & !matches("INTFQ"),
    starts_with("PREGNANT"), starts_with("FPCURREFFMETHRC"),
  ) %>% 
  pivot_longer(
    !ID,
    names_pattern = "(.*)_(.*)",
    names_to = c(".value", "PHASE")
  ) %>% 
  full_join(cals, by = c("ID", "PHASE"))

cals 

# A tibble: 35,424 × 16
      ID PHASE KID1STBIRTHCMC FPBEGINUSECMC LASTBIRTHCMC OTHERBIRTHCMC
   <int> <chr>          <dbl>         <dbl>        <dbl>         <dbl>
 1     1 1               1314            NA         1430            NA
 2     1 2               1314          1448         1430          1430
 3     2 1                 NA            NA         1390            NA
 4     2 2                 NA          1444         1443            NA
 5     3 1                 NA            NA           NA            NA
 6     3 2                 NA            NA           NA            NA
 7     4 1               1324          1428         1406            NA
 8     4 2               1324            NA         1406            NA
 9     5 1               1366            NA         1422            NA
10     5 2               1366            NA         1422            NA
# … with 35,414 more rows, and 10 more variables: PANELBIRTHCMC <dbl>,
#   PREGENDCMC <dbl>, PANELPREGENDCMC <dbl>, PREGNANT <int+lbl>,
#   FPCURREFFMETHRC <int+lbl>, COUNTRY <fct>, CALSTART <dbl>, CALSTOP <dbl>,
#   FPSTATUS <chr+lbl>, WHYSTOP <chr+lbl>
…
cals <- cals %>% 
  mutate(
    .after = PHASE,
    CALMISSING = FPSTATUS == "" & WHYSTOP == "" & {
      PREGNANT == 1 | if_any(ends_with("CMC"), ~!is.na(.x) & .x >= CALSTART)
    }
  ) %>% 
  relocate(CALSTART, .after = CALMISSING)

cals 

# A tibble: 35,424 × 17
      ID PHASE CALMISSING CALSTART KID1STBIRTHCMC FPBEGINUSECMC LASTBIRTHCMC
   <int> <chr> <lgl>         <dbl>          <dbl>         <dbl>        <dbl>
 1     1 1     FALSE          1417           1314            NA         1430
 2     1 2     FALSE          1417           1314          1448         1430
 3     2 1     FALSE          1417             NA            NA         1390
 4     2 2     FALSE          1417             NA          1444         1443
 5     3 1     FALSE          1417             NA            NA           NA
 6     3 2     FALSE          1417             NA            NA           NA
 7     4 1     FALSE          1417           1324          1428         1406
 8     4 2     FALSE          1417           1324            NA         1406
 9     5 1     FALSE          1417           1366            NA         1422
10     5 2     TRUE           1417           1366            NA         1422
# … with 35,414 more rows, and 10 more variables: OTHERBIRTHCMC <dbl>,
#   PANELBIRTHCMC <dbl>, PREGENDCMC <dbl>, PANELPREGENDCMC <dbl>,
#   PREGNANT <int+lbl>, FPCURREFFMETHRC <int+lbl>, COUNTRY <fct>,
#   CALSTOP <dbl>, FPSTATUS <chr+lbl>, WHYSTOP <chr+lbl>
…
We’ve now completed as many of the blank calendars as we can, so it’s
time to transform each calendar string into variables that will be
usable in survival analysis.

We’ll begin with another pivot_longer
function to position FPSTATUS and WHYSTOP
together in a single column. Notice the temporary column
name describes the type of calendar that appears in the
temporary column value.

cals <- cals %>% pivot_longer(c("FPSTATUS", "WHYSTOP"))

cals 

# A tibble: 70,848 × 6
      ID PHASE CALSTART COUNTRY name     value                                  
   <int> <chr>    <dbl> <fct>   <chr>    <chr+lbl>                              
 1     1 1         1417 BF      FPSTATUS ",,,,,,,,,,0,0,0,0,0,0,0,0,0,0,0,0,B,P…
 2     1 1         1417 BF      WHYSTOP  ",,,,,,,,,,,,,,,,,,,,,,,,,,,,,,,,,,,"  
 3     1 2         1417 BF      FPSTATUS ",,,,,,,,,,,3,3,3,3,3,3,0,0,0,0,0,0,0,…
 4     1 2         1417 BF      WHYSTOP  ",,,,,,,,,,,,,,,,,,,,,,,,,,,,,,,,,,,,,…
 5     2 1         1417 BF      FPSTATUS ",,,,,,,,,,,P,P,P,P,P,P,P,0,0,0,0,0,0,…
 6     2 1         1417 BF      WHYSTOP  ",,,,,,,,,,,,,,,,,,,,,,,,,6,,,,,,,,,," 
 7     2 2         1417 BF      FPSTATUS ",,,,,,,,,,,,5,5,5,5,5,5,5,5,5,B,P,P,P…
 8     2 2         1417 BF      WHYSTOP  ",,,,,,,,,,,,,,,,,,,,,,,,,,,,,,,,,,,,6…
 9     3 1         1417 BF      FPSTATUS ",,,,,,,,,,,0,0,0,0,0,0,0,0,0,0,0,0,0,…
10     3 1         1417 BF      WHYSTOP  ""                                     
# … with 70,838 more rows
…
[1] 48

In separate, we
tell R to split each string into 48 columns: if any given
calendar has fewer than 48 values, we fill the left-most
columns with the value NA as needed.

# Create one column for every month in the longest calendar
cals <- cals %>% 
  separate(value, into = paste0("cal", ncols:1), sep = ",", fill = "left", )

cals 

# A tibble: 70,848 × 53
      ID PHASE CALSTART COUNTRY name   cal48 cal47 cal46 cal45 cal44 cal43 cal42
   <int> <chr>    <dbl> <fct>   <chr>  <chr> <chr> <chr> <chr> <chr> <chr> <chr>
 1     1 1         1417 BF      FPSTA…  <NA>  <NA>  <NA>  <NA>  <NA>  <NA>  <NA>
 2     1 1         1417 BF      WHYST…  <NA>  <NA>  <NA>  <NA>  <NA>  <NA>  <NA>
 3     1 2         1417 BF      FPSTA… ""    ""    ""    ""    ""    ""    ""   
 4     1 2         1417 BF      WHYST… ""    ""    ""    ""    ""    ""    ""   
 5     2 1         1417 BF      FPSTA…  <NA>  <NA>  <NA>  <NA>  <NA>  <NA>  <NA>
 6     2 1         1417 BF      WHYST…  <NA>  <NA>  <NA>  <NA>  <NA>  <NA>  <NA>
 7     2 2         1417 BF      FPSTA… ""    ""    ""    ""    ""    ""    ""   
 8     2 2         1417 BF      WHYST… ""    ""    ""    ""    ""    ""    ""   
 9     3 1         1417 BF      FPSTA…  <NA>  <NA>  <NA>  <NA>  <NA>  <NA>  <NA>
10     3 1         1417 BF      WHYST…  <NA>  <NA>  <NA>  <NA>  <NA>  <NA>  <NA>
# … with 70,838 more rows, and 41 more variables: cal41 <chr>, cal40 <chr>,
#   cal39 <chr>, cal38 <chr>, cal37 <chr>, cal36 <chr>, cal35 <chr>,
#   cal34 <chr>, cal33 <chr>, cal32 <chr>, cal31 <chr>, cal30 <chr>,
#   cal29 <chr>, cal28 <chr>, cal27 <chr>, cal26 <chr>, cal25 <chr>,
#   cal24 <chr>, cal23 <chr>, cal22 <chr>, cal21 <chr>, cal20 <chr>,
#   cal19 <chr>, cal18 <chr>, cal17 <chr>, cal16 <chr>, cal15 <chr>,
#   cal14 <chr>, cal13 <chr>, cal12 <chr>, cal11 <chr>, cal10 <chr>, …
…
cals <- cals %>% 
  mutate(across(
    starts_with("cal", ignore.case = FALSE),
    ~na_if(.x, "")
  ))

cals 

# A tibble: 70,848 × 53
      ID PHASE CALSTART COUNTRY name   cal48 cal47 cal46 cal45 cal44 cal43 cal42
   <int> <chr>    <dbl> <fct>   <chr>  <chr> <chr> <chr> <chr> <chr> <chr> <chr>
 1     1 1         1417 BF      FPSTA… <NA>  <NA>  <NA>  <NA>  <NA>  <NA>  <NA> 
 2     1 1         1417 BF      WHYST… <NA>  <NA>  <NA>  <NA>  <NA>  <NA>  <NA> 
 3     1 2         1417 BF      FPSTA… <NA>  <NA>  <NA>  <NA>  <NA>  <NA>  <NA> 
 4     1 2         1417 BF      WHYST… <NA>  <NA>  <NA>  <NA>  <NA>  <NA>  <NA> 
 5     2 1         1417 BF      FPSTA… <NA>  <NA>  <NA>  <NA>  <NA>  <NA>  <NA> 
 6     2 1         1417 BF      WHYST… <NA>  <NA>  <NA>  <NA>  <NA>  <NA>  <NA> 
 7     2 2         1417 BF      FPSTA… <NA>  <NA>  <NA>  <NA>  <NA>  <NA>  <NA> 
 8     2 2         1417 BF      WHYST… <NA>  <NA>  <NA>  <NA>  <NA>  <NA>  <NA> 
 9     3 1         1417 BF      FPSTA… <NA>  <NA>  <NA>  <NA>  <NA>  <NA>  <NA> 
10     3 1         1417 BF      WHYST… <NA>  <NA>  <NA>  <NA>  <NA>  <NA>  <NA> 
# … with 70,838 more rows, and 41 more variables: cal41 <chr>, cal40 <chr>,
#   cal39 <chr>, cal38 <chr>, cal37 <chr>, cal36 <chr>, cal35 <chr>,
#   cal34 <chr>, cal33 <chr>, cal32 <chr>, cal31 <chr>, cal30 <chr>,
#   cal29 <chr>, cal28 <chr>, cal27 <chr>, cal26 <chr>, cal25 <chr>,
#   cal24 <chr>, cal23 <chr>, cal22 <chr>, cal21 <chr>, cal20 <chr>,
#   cal19 <chr>, cal18 <chr>, cal17 <chr>, cal16 <chr>, cal15 <chr>,
#   cal14 <chr>, cal13 <chr>, cal12 <chr>, cal11 <chr>, cal10 <chr>, …
…
cals <- cals  %>% 
  pivot_longer(
    starts_with("cal", ignore.case = FALSE), 
    names_to = "MONTH", 
    names_prefix = "cal"
  )

cals 

# A tibble: 3,400,704 × 7
      ID PHASE CALSTART COUNTRY name     MONTH value
   <int> <chr>    <dbl> <fct>   <chr>    <chr> <chr>
 1     1 1         1417 BF      FPSTATUS 48    <NA> 
 2     1 1         1417 BF      FPSTATUS 47    <NA> 
 3     1 1         1417 BF      FPSTATUS 46    <NA> 
 4     1 1         1417 BF      FPSTATUS 45    <NA> 
 5     1 1         1417 BF      FPSTATUS 44    <NA> 
 6     1 1         1417 BF      FPSTATUS 43    <NA> 
 7     1 1         1417 BF      FPSTATUS 42    <NA> 
 8     1 1         1417 BF      FPSTATUS 41    <NA> 
 9     1 1         1417 BF      FPSTATUS 40    <NA> 
10     1 1         1417 BF      FPSTATUS 39    <NA> 
# … with 3,400,694 more rows

From MONTH and CALSTART, we’ll derive
CALCMC to mark the calendar month for each
value.

cals <- cals %>%
  mutate(CALCMC = CALSTART + as.integer(MONTH) - 1)

cals

# A tibble: 3,400,704 × 8
      ID PHASE CALSTART COUNTRY name     MONTH value CALCMC
   <int> <chr>    <dbl> <fct>   <chr>    <chr> <chr>  <dbl>
 1     1 1         1417 BF      FPSTATUS 48    <NA>    1464
 2     1 1         1417 BF      FPSTATUS 47    <NA>    1463
 3     1 1         1417 BF      FPSTATUS 46    <NA>    1462
 4     1 1         1417 BF      FPSTATUS 45    <NA>    1461
 5     1 1         1417 BF      FPSTATUS 44    <NA>    1460
 6     1 1         1417 BF      FPSTATUS 43    <NA>    1459
 7     1 1         1417 BF      FPSTATUS 42    <NA>    1458
 8     1 1         1417 BF      FPSTATUS 41    <NA>    1457
 9     1 1         1417 BF      FPSTATUS 40    <NA>    1456
10     1 1         1417 BF      FPSTATUS 39    <NA>    1455
# … with 3,400,694 more rows
…
cals <- cals %>% 
  select(ID, PHASE, CALCMC, name, value) %>% 
  pivot_wider(
    names_from = c(name, PHASE), 
    values_from = value
  ) %>% 
  filter(!(is.na(FPSTATUS_1) & FPSTATUS_2 == "")) %>% 
  arrange(ID, desc(CALCMC)) 

cals

# A tibble: 769,071 × 6
      ID CALCMC FPSTATUS_1 WHYSTOP_1 FPSTATUS_2 WHYSTOP_2
   <int>  <dbl> <chr>      <chr>     <chr>      <chr>    
 1     1   1453 <NA>       <NA>      3          <NA>     
 2     1   1452 <NA>       <NA>      3          <NA>     
 3     1   1451 <NA>       <NA>      3          <NA>     
 4     1   1450 <NA>       <NA>      3          <NA>     
 5     1   1449 <NA>       <NA>      3          <NA>     
 6     1   1448 <NA>       <NA>      3          <NA>     
 7     1   1447 <NA>       <NA>      0          <NA>     
 8     1   1446 <NA>       <NA>      0          <NA>     
 9     1   1445 <NA>       <NA>      0          <NA>     
10     1   1444 <NA>       <NA>      0          <NA>     
11     1   1443 <NA>       <NA>      0          <NA>     
12     1   1442 0          <NA>      0          <NA>     
13     1   1441 0          <NA>      0          <NA>     
14     1   1440 0          <NA>      0          <NA>     
15     1   1439 0          <NA>      0          <NA>     
16     1   1438 0          <NA>      0          <NA>     
17     1   1437 0          <NA>      0          <NA>     
18     1   1436 0          <NA>      0          <NA>     
19     1   1435 0          <NA>      0          <NA>     
20     1   1434 0          <NA>      0          <NA>     
21     1   1433 0          <NA>      0          <NA>     
22     1   1432 0          <NA>      0          <NA>     
23     1   1431 0          <NA>      0          <NA>     
24     1   1430 B          <NA>      B          <NA>     
25     1   1429 P          <NA>      P          <NA>     
26     1   1428 P          <NA>      P          <NA>     
27     1   1427 P          <NA>      P          <NA>     
28     1   1426 P          <NA>      P          <NA>     
29     1   1425 P          <NA>      P          <NA>     
30     1   1424 P          <NA>      P          <NA>     
31     1   1423 P          <NA>      P          <NA>     
32     1   1422 P          <NA>      0          <NA>     
33     1   1421 0          <NA>      0          <NA>     
34     1   1420 0          <NA>      0          <NA>     
35     1   1419 0          <NA>      0          <NA>     
36     1   1418 0          <NA>      0          <NA>     
37     1   1417 0          <NA>      0          <NA>     
38     2   1452 <NA>       <NA>      5          <NA>     
39     2   1451 <NA>       <NA>      5          <NA>     
40     2   1450 <NA>       <NA>      5          <NA>     
# … with 769,031 more rows
…
nonusers <- nonusers %>% 
  transmute(
    ID, COUNTRY, CALCMC, 
    FPSTATUS_2, UNMETYN_1, FPPLANYR_1,
    MO = CALCMC - INTFQCMC_1,
    USE = !FPSTATUS_2 %in% c("0", "B", "P", "T")
  ) 

nonusers 

# A tibble: 116,860 × 8
      ID COUNTRY CALCMC FPSTATUS_2 UNMETYN_1 FPPLANYR_1    MO USE  
   <int> <fct>    <dbl> <chr>      <lgl>     <lgl>      <dbl> <lgl>
 1     1 BF        1453 3          FALSE     TRUE          11 TRUE 
 2     1 BF        1452 3          FALSE     TRUE          10 TRUE 
 3     1 BF        1451 3          FALSE     TRUE           9 TRUE 
 4     1 BF        1450 3          FALSE     TRUE           8 TRUE 
 5     1 BF        1449 3          FALSE     TRUE           7 TRUE 
 6     1 BF        1448 3          FALSE     TRUE           6 TRUE 
 7     1 BF        1447 0          FALSE     TRUE           5 FALSE
 8     1 BF        1446 0          FALSE     TRUE           4 FALSE
 9     1 BF        1445 0          FALSE     TRUE           3 FALSE
10     1 BF        1444 0          FALSE     TRUE           2 FALSE
11     1 BF        1443 0          FALSE     TRUE           1 FALSE
12     1 BF        1442 0          FALSE     TRUE           0 FALSE
13     2 BF        1452 5          FALSE     FALSE         11 TRUE 
14     2 BF        1451 5          FALSE     FALSE         10 TRUE 
15     2 BF        1450 5          FALSE     FALSE          9 TRUE 
16     2 BF        1449 5          FALSE     FALSE          8 TRUE 
17     2 BF        1448 5          FALSE     FALSE          7 TRUE 
18     2 BF        1447 5          FALSE     FALSE          6 TRUE 
19     2 BF        1446 5          FALSE     FALSE          5 TRUE 
20     2 BF        1445 5          FALSE     FALSE          4 TRUE 
# … with 116,840 more rows
…
