Merging Service Delivery Point Data to Household & Female Records
…
EAID and EASERVED

For the moment, let’s just take a look at the basic structure of our data, selecting only the variables FACILITYID, SAMPLE, AUTHORITY, CONSENTSQ, and EAID. For this preview, we’ll also arrange the data in ascending order of FACILITYID and SAMPLE:

FACILITYID, SAMPLE, CONSENTSQ, and EAID are automatically included in every SDP data extract.

sdp %>% 
  select(FACILITYID, SAMPLE, AUTHORITY, CONSENTSQ, EAID) %>% 
  arrange(FACILITYID, SAMPLE)

# A tibble: 234 x 5
   FACILITYID                      SAMPLE    AUTHORITY CONSENTSQ  EAID
    <int+lbl>                   <int+lbl>    <int+lbl> <int+lbl> <dbl>
 1       7006 85405 [Burkina Faso 2017 R… 1 [Governme…   1 [Yes]  7390
 2       7006 85408 [Burkina Faso 2018 R… 1 [Governme…   1 [Yes]  7390
 3       7027 85405 [Burkina Faso 2017 R… 1 [Governme…   1 [Yes]  7332
 4       7027 85408 [Burkina Faso 2018 R… 1 [Governme…   1 [Yes]  7332
 5       7029 85405 [Burkina Faso 2017 R… 4 [Private]    1 [Yes]  7111
 6       7029 85408 [Burkina Faso 2018 R… 4 [Private]    0 [No]   7111
 7       7036 85408 [Burkina Faso 2018 R… 1 [Governme…   1 [Yes]  7412
 8       7046 85408 [Burkina Faso 2018 R… 4 [Private]    1 [Yes]  7798
 9       7048 85405 [Burkina Faso 2017 R… 1 [Governme…   1 [Yes]  7009
10       7051 85408 [Burkina Faso 2018 R… 1 [Governme…   1 [Yes]  7798
# … with 224 more rows

Each row in our data represents one facility from one sample. Notice that some - but not all - facilities appear once in sample 85405 (from 2017), and again in sample 85408 (from 2018).

The variable AUTHORITY shows the managing authority for each facility. Following the discussion above, we’ll expect to find information about the service catchment area for each facility where the managing authority is 1 - Government.

Also notice CONSENTSQ, which indicates whether a respondent at each facility consented to be interviewed. When you first obtain a data extract, you should expect most variables to be marked Not interviewed (SDP questionnaire) for facilities where CONSENTSQ shows 0 - No. However, we’ve already taken the extra step of marking all non-response values NA: we should now expect to see NA substituted for Not interviewed (SDP questionnaire).

Lastly, take particular note of the variable EAID: in SDP data, EAID shows the identification code associated with the enumeration area where a facility is located.

We’ll find information about the service catchment area for each facility in a different set of variables, each starting with with prefix EASERVED:

sdp %>% 
  select(starts_with("EASERVED")) 

# A tibble: 234 x 18
   EASERVED1 EASERVED2 EASERVED3 EASERVED4 EASERVED5 EASERVED6
   <int+lbl> <int+lbl> <int+lbl> <int+lbl> <int+lbl> <int+lbl>
 1      7380      7323      7491      7605      7142      7279
 2      7879      7516      7111      7554      7934      7791
 3      7483        NA        NA        NA        NA        NA
 4      7185        NA        NA        NA        NA        NA
 5      7725      7859      7472      7175        NA        NA
 6      7082        NA        NA        NA        NA        NA
 7      7650        NA        NA        NA        NA        NA
 8      7955        NA        NA        NA        NA        NA
 9      7323        NA        NA        NA        NA        NA
10      7774        NA        NA        NA        NA        NA
# … with 224 more rows, and 12 more variables: EASERVED7 <int+lbl>,
#   EASERVED8 <int+lbl>, EASERVED9 <int+lbl>, EASERVED10 <int+lbl>,
#   EASERVED11 <int+lbl>, …
…
# A tibble: 3 x 2
        AUTHORITY     n
*       <int+lbl> <int>
1 1 [Government]    202
2 3 [Faith-based]     3
3 4 [Private]        29

The vast majority of SDPs in our sample are public-sector facilities. They comprise 202 of the 234 facilities in our sample.

sdp %>% 
  filter(AUTHORITY == 1) %>% 
  select(starts_with("EASERVED")) 

# A tibble: 202 x 18
   EASERVED1 EASERVED2 EASERVED3 EASERVED4 EASERVED5 EASERVED6
   <int+lbl> <int+lbl> <int+lbl> <int+lbl> <int+lbl> <int+lbl>
 1      7380      7323      7491      7605      7142      7279
 2      7879      7516      7111      7554      7934      7791
 3      7483        NA        NA        NA        NA        NA
 4      7185        NA        NA        NA        NA        NA
 5      7725      7859      7472      7175        NA        NA
 6      7082        NA        NA        NA        NA        NA
 7      7650        NA        NA        NA        NA        NA
 8      7955        NA        NA        NA        NA        NA
 9      7323        NA        NA        NA        NA        NA
10      7774        NA        NA        NA        NA        NA
# … with 192 more rows, and 12 more variables: EASERVED7 <int+lbl>,
#   EASERVED8 <int+lbl>, EASERVED9 <int+lbl>, EASERVED10 <int+lbl>,
#   EASERVED11 <int+lbl>, …
…
sdp <- sdp %>%
  pivot_longer(
    cols = starts_with("EASERVED"),
    values_to = "EASERVED",
    values_drop_na = T,
    names_to = NULL
  ) %>%
  distinct() # in case any facility listed the same EASERVED twice

Dropping each row where EASERVED is missing, we’re left with 372 rows where information about each SDP gets repeated once for every enumeration area that it serves. (Remember: our original dataset contained only 234 rows because SDPs occupied just one row apiece).

sdp %>% select(FACILITYID, EASERVED, everything())

# A tibble: 372 x 58
   FACILITYID EASERVED      SAMPLE COUNTRY  YEAR ROUND  EAID CONSENTSQ
    <int+lbl> <dbl+lb>   <int+lbl> <int+l> <int> <dbl> <dbl> <int+lbl>
 1       7250     7380 85405 [Bur… 1 [Bur…  2017     5  7142   1 [Yes]
 2       7250     7323 85405 [Bur… 1 [Bur…  2017     5  7142   1 [Yes]
 3       7250     7491 85405 [Bur… 1 [Bur…  2017     5  7142   1 [Yes]
 4       7250     7605 85405 [Bur… 1 [Bur…  2017     5  7142   1 [Yes]
 5       7250     7142 85405 [Bur… 1 [Bur…  2017     5  7142   1 [Yes]
 6       7250     7279 85405 [Bur… 1 [Bur…  2017     5  7142   1 [Yes]
 7       7250     7370 85405 [Bur… 1 [Bur…  2017     5  7142   1 [Yes]
 8       7250     7725 85405 [Bur… 1 [Bur…  2017     5  7142   1 [Yes]
 9       7250     7811 85405 [Bur… 1 [Bur…  2017     5  7142   1 [Yes]
10       7250     7859 85405 [Bur… 1 [Bur…  2017     5  7142   1 [Yes]
# … with 362 more rows, and 50 more variables: STRATA <int+lbl>,
#   FACILITYTYPE <int+lbl>, FACILITYTYPEGEN <int+lbl>,
#   AUTHORITY <int+lbl>, CONPROV <int+lbl>, …

Summarise by EASERVED and SAMPLE

Now that we’ve reshaped our data, we’ll be able to create some simple summary statistics about each of the enumeration areas served by the facilities in our sample. First, let’s group_by(EASERVED, SAMPLE) and count() the number of facilities providing services to each enumeration area in each of our samples:

sdp %>% 
  group_by(EASERVED, SAMPLE) %>% 
  summarize(
    .groups = "keep", 
    N_SDP = n()
  )

# A tibble: 149 x 3
# Groups:   EASERVED, SAMPLE [149]
    EASERVED                            SAMPLE N_SDP
   <dbl+lbl>                         <int+lbl> <int>
 1      7003 85405 [Burkina Faso 2017 Round 5]     3
 2      7003 85408 [Burkina Faso 2018 Round 6]     2
 3      7006 85405 [Burkina Faso 2017 Round 5]     2
 4      7006 85408 [Burkina Faso 2018 Round 6]     1
 5      7009 85405 [Burkina Faso 2017 Round 5]     3
 6      7009 85408 [Burkina Faso 2018 Round 6]     2
 7      7016 85405 [Burkina Faso 2017 Round 5]     3
 8      7016 85408 [Burkina Faso 2018 Round 6]     2
 9      7026 85405 [Burkina Faso 2017 Round 5]     3
10      7026 85408 [Burkina Faso 2018 Round 6]     3
# … with 139 more rows

Continuing with the variable EMRGPROV, we can now also count the number of sampled facilities providing emergency contraception to each EASERVED:

sdp %>% 
  group_by(EASERVED, SAMPLE) %>% 
  summarize(
    .groups = "keep",
    N_EMRGPROV = sum(EMRGPROV)
  )

# A tibble: 149 x 3
# Groups:   EASERVED, SAMPLE [149]
    EASERVED                            SAMPLE N_EMRGPROV
   <dbl+lbl>                         <int+lbl>      <int>
 1      7003 85405 [Burkina Faso 2017 Round 5]          0
 2      7003 85408 [Burkina Faso 2018 Round 6]          0
 3      7006 85405 [Burkina Faso 2017 Round 5]          0
 4      7006 85408 [Burkina Faso 2018 Round 6]          0
 5      7009 85405 [Burkina Faso 2017 Round 5]          2
 6      7009 85408 [Burkina Faso 2018 Round 6]          1
 7      7016 85405 [Burkina Faso 2017 Round 5]          0
 8      7016 85408 [Burkina Faso 2018 Round 6]          0
 9      7026 85405 [Burkina Faso 2017 Round 5]          0
10      7026 85408 [Burkina Faso 2018 Round 6]          0
# … with 139 more rows

What if we want to include a count of the facilities providing each of the different contraceptive methods in our data? Building on a technique showcased in our last post, we could use dplyr::across to iterate over all variables ending with the suffix PROV:

sdp %>% 
  group_by(EASERVED, SAMPLE) %>% 
  summarize(
    .groups = "keep",
    across(ends_with("PROV"), ~sum(.x), .names = "N_{.col}")
  ) 

# A tibble: 149 x 15
# Groups:   EASERVED, SAMPLE [149]
   EASERVED      SAMPLE N_CONPROV N_CYCBPROV N_DEPOPROV N_DIAPROV
   <dbl+lb>   <int+lbl>     <int>      <int>      <int>     <int>
 1     7003 85405 [Bur…         3          3          3         0
 2     7003 85408 [Bur…         2          2          2         0
 3     7006 85405 [Bur…         2          2          2         0
 4     7006 85408 [Bur…         1          1          1         0
 5     7009 85405 [Bur…         3          1          3         0
 6     7009 85408 [Bur…         2          2          2         0
 7     7016 85405 [Bur…         3          3          3         0
 8     7016 85408 [Bur…         2          1          2         0
 9     7026 85405 [Bur…         3          3          3         0
10     7026 85408 [Bur…         3          3          3         0
# … with 139 more rows, and 9 more variables: N_EMRGPROV <int>,
#   N_FCPROV <int>, N_FSTPROV <int>, N_FJPROV <int>, N_IMPPROV <int>,
#   …
We’ll reduce this information even further, creating a variable NUM_METHODS_PROV indicating the number of methods provided by at least one sampled facility:

sdp %>% 
  group_by(EASERVED, SAMPLE) %>% 
  summarize(
    .groups = "keep",
    across(ends_with("PROV"), ~sum(.x), .names = "N_{.col}")
  ) %>% 
  transmute(
    EASERVED,
    SAMPLE,
    NUM_METHODS_PROV = sum(c_across(ends_with("PROV")) > 0, na.rm = T)
  )

# A tibble: 149 x 3
# Groups:   EASERVED, SAMPLE [149]
    EASERVED                            SAMPLE NUM_METHODS_PROV
   <dbl+lbl>                         <int+lbl>            <int>
 1      7003 85405 [Burkina Faso 2017 Round 5]               10
 2      7003 85408 [Burkina Faso 2018 Round 6]                8
 3      7006 85405 [Burkina Faso 2017 Round 5]               10
 4      7006 85408 [Burkina Faso 2018 Round 6]                8
 5      7009 85405 [Burkina Faso 2017 Round 5]                9
 6      7009 85408 [Burkina Faso 2018 Round 6]               10
 7      7016 85405 [Burkina Faso 2017 Round 5]                9
 8      7016 85408 [Burkina Faso 2018 Round 6]                8
 9      7026 85405 [Burkina Faso 2017 Round 5]               10
10      7026 85408 [Burkina Faso 2018 Round 6]               10
# … with 139 more rows
…
hhf

# A tibble: 6,944 x 5
   PERSONID           EAID    URBAN                   SAMPLE FPCURRUSE
   <chr>             <dbl> <int+lb>                <int+lbl> <int+lbl>
 1 0762000000029022…  7620 1 [Urba… 85405 [Burkina Faso 201…  NA      
 2 0735800000017142…  7358 0 [Rura… 85405 [Burkina Faso 201…   0 [No] 
 3 0710400000020992…  7104 0 [Rura… 85405 [Burkina Faso 201…   0 [No] 
 4 0704800000014092…  7048 1 [Urba… 85405 [Burkina Faso 201…   0 [No] 
 5 0715600000020782…  7156 0 [Rura… 85405 [Burkina Faso 201…   0 [No] 
 6 0727900000021452…  7279 1 [Urba… 85405 [Burkina Faso 201…   0 [No] 
 7 0743100000024642…  7431 0 [Rura… 85405 [Burkina Faso 201…   1 [Yes]
 8 0721200000025792…  7212 0 [Rura… 85405 [Burkina Faso 201…   0 [No] 
 9 0704200000014542…  7042 1 [Urba… 85405 [Burkina Faso 201…   0 [No] 
10 0797200000013032…  7972 1 [Urba… 85405 [Burkina Faso 201…   0 [No] 
# … with 6,934 more rows
…
85408 - Burkina Faso 2018 Round 6

When we merge, we’ll want to match each woman to both a SAMPLE and an EASERVED from the SDP data. We’ll rename EASERVED to match the variable EAID in the HHF data:

bf_merged <- sdp %>% 
  rename(EAID = EASERVED) %>% 
  right_join(hhf, by = c("EAID", "SAMPLE"))

Now, each woman’s record contains all of the variables we created above summarizing the SDPs that serve her enumeration area. For example, for all sampled women living in EAID == 7003 in 2017, the value in NUM_METHODS_OUT3MO shows the number of family planning methods that were out of stock with any SDP serving the woman’s enumeration area within three months prior to the survey:

bf_merged %>% 
  filter(EAID == 7003, SAMPLE == 85405) %>% 
  select(PERSONID, EAID, SAMPLE, NUM_METHODS_OUT3MO)

# A tibble: 55 x 4
   PERSONID             EAID                  SAMPLE NUM_METHODS_OUT3…
   <chr>            <dbl+lb>               <int+lbl>             <int>
 1 070030000001973…     7003 85405 [Burkina Faso 20…                 0
 2 070030000001973…     7003 85405 [Burkina Faso 20…                 0
 3 070030000002640…     7003 85405 [Burkina Faso 20…                 0
 4 070030000001075…     7003 85405 [Burkina Faso 20…                 0
 5 070030000001609…     7003 85405 [Burkina Faso 20…                 0
 6 070030000000835…     7003 85405 [Burkina Faso 20…                 0
 7 070030000001273…     7003 85405 [Burkina Faso 20…                 0
 8 070030000000527…     7003 85405 [Burkina Faso 20…                 0
 9 070030000002561…     7003 85405 [Burkina Faso 20…                 0
10 070030000002391…     7003 85405 [Burkina Faso 20…                 0
# … with 45 more rows
…
