Building many similar models: easy variable substitution with 'pack' and 'across'
…
© RStudio (CC0 1.0)

When we do this, we create one tidy data frame - a tibble - for all of the variables dealing with a particular family planning method. Each one of these smaller data frames is “packed” into a single column in the larger parent data frame we’ve called dat_packed. This parent also contains all of the original dat variables that we didn’t happen to include in a pack.

You can call any one of these smaller packs using the same $ operator you’d use to call any other variable.

dat_packed$IUD

# A tibble: 3,901 × 3
   METHCOUNIUD                    IUDOBS IUDOUT3MO
     <int+lbl>                 <int+lbl> <int+lbl>
 1      0 [No] 1 [In-stock and observed]   0 [No] 
 2      0 [No] 1 [In-stock and observed]   0 [No] 
 3      0 [No] 1 [In-stock and observed]   1 [Yes]
 4      0 [No] 1 [In-stock and observed]   0 [No] 
 5      0 [No] 1 [In-stock and observed]   0 [No] 
 6      0 [No] 1 [In-stock and observed]   0 [No] 
 7      0 [No] 1 [In-stock and observed]   0 [No] 
 8      0 [No] 1 [In-stock and observed]   0 [No] 
 9      0 [No] 1 [In-stock and observed]   1 [Yes]
10      0 [No] 1 [In-stock and observed]   1 [Yes]
# … with 3,891 more rows

If you call one of these packs in the larger context of its parent data frame, you’ll notice something strange about the output. Let’s call the IUD pack together with FACILITYID:

dat_packed %>% select(FACILITYID, IUD)

# A tibble: 3,901 × 2
   FACILITYID IUD$METHCOUNIUD                   $IUDOBS $IUDOUT3MO
    <dbl+lbl>       <int+lbl>                 <int+lbl>  <int+lbl>
 1  404111003          0 [No] 1 [In-stock and observed]    0 [No] 
 2  404111003          0 [No] 1 [In-stock and observed]    0 [No] 
 3  404111001          0 [No] 1 [In-stock and observed]    1 [Yes]
 4  404111003          0 [No] 1 [In-stock and observed]    0 [No] 
 5  404111003          0 [No] 1 [In-stock and observed]    0 [No] 
 6  404111003          0 [No] 1 [In-stock and observed]    0 [No] 
 7  404111003          0 [No] 1 [In-stock and observed]    0 [No] 
 8  404111003          0 [No] 1 [In-stock and observed]    0 [No] 
 9  404111001          0 [No] 1 [In-stock and observed]    1 [Yes]
10  404111001          0 [No] 1 [In-stock and observed]    1 [Yes]
# … with 3,891 more rows

The tibble header tells us we’ve printed a tibble with 3,901 rows and 2 columns, but we actually see 4 columns - FACILITYID and each of the 3 variables in our IUD pack. Moreover, the pack name IUD appears as a prefix only on the first column IUD$METHCOUNIUD; the others use $ as shorthand to show that they’re members of the same pack.

In practice, you’ll rarely want to select individual packs by name - it’s much more useful to select and then mutate or summarize all packs at once. You can do this by selecting all variables that are members of the tibble class with where(is_tibble):

dat_packed %>% select(where(is_tibble))

# A tibble: 3,901 × 9
   BEADS$METHCOUNBEADS   $CYCBOBS  $CYCBOUT3MO CON$METHCOUNMC  $CONOBS
             <int+lbl>  <int+lbl>    <int+lbl>      <int+lbl> <int+lb>
 1              0 [No] 99 [NIU (… 99 [NIU (no…         0 [No] 1 [In-s…
 2              0 [No] 99 [NIU (… 99 [NIU (no…         0 [No] 1 [In-s…
 3              0 [No] 99 [NIU (… 99 [NIU (no…         0 [No] 1 [In-s…
 4              0 [No] 99 [NIU (… 99 [NIU (no…         0 [No] 1 [In-s…
 5              0 [No] 99 [NIU (… 99 [NIU (no…         0 [No] 1 [In-s…
 6              0 [No] 99 [NIU (… 99 [NIU (no…         0 [No] 1 [In-s…
 7              0 [No] 99 [NIU (… 99 [NIU (no…         0 [No] 1 [In-s…
 8              0 [No] 99 [NIU (… 99 [NIU (no…         0 [No] 1 [In-s…
 9              0 [No] 99 [NIU (… 99 [NIU (no…         0 [No] 1 [In-s…
10              0 [No] 99 [NIU (… 99 [NIU (no…         0 [No] 1 [In-s…
# … with 3,891 more rows, and 7 more variables: DIA <tibble[,3]>,
#   EMRG <tibble[,3]>, FC <tibble[,3]>, FOAM <tibble[,3]>,
#   IMP <tibble[,3]>, IUD <tibble[,3]>, PILL <tibble[,3]>
…
dat_packed <- dat_packed %>% 
  mutate(across(
    where(is_tibble),
    ~.x %>% 
      rename(
        COUNSEL = contains("METHCOUN"),
        OBS = contains("OBS"),
        OUT3MO = contains("OUT3MO")
      )
  ))

# Within each pack, you'll now find 3 variables of the same name
dat_packed %>% select(where(is_tibble))

# A tibble: 3,901 × 9
   BEADS$COUNSEL        $OBS     $OUT3MO CON$COUNSEL      $OBS $OUT3MO
       <int+lbl>   <int+lbl>   <int+lbl>   <int+lbl> <int+lbl> <int+l>
 1        0 [No] 99 [NIU (n… 99 [NIU (n…      0 [No] 1 [In-st…  0 [No]
 2        0 [No] 99 [NIU (n… 99 [NIU (n…      0 [No] 1 [In-st…  0 [No]
 3        0 [No] 99 [NIU (n… 99 [NIU (n…      0 [No] 1 [In-st…  0 [No]
 4        0 [No] 99 [NIU (n… 99 [NIU (n…      0 [No] 1 [In-st…  0 [No]
 5        0 [No] 99 [NIU (n… 99 [NIU (n…      0 [No] 1 [In-st…  0 [No]
 6        0 [No] 99 [NIU (n… 99 [NIU (n…      0 [No] 1 [In-st…  0 [No]
 7        0 [No] 99 [NIU (n… 99 [NIU (n…      0 [No] 1 [In-st…  0 [No]
 8        0 [No] 99 [NIU (n… 99 [NIU (n…      0 [No] 1 [In-st…  0 [No]
 9        0 [No] 99 [NIU (n… 99 [NIU (n…      0 [No] 1 [In-st…  0 [No]
10        0 [No] 99 [NIU (n… 99 [NIU (n…      0 [No] 1 [In-st…  0 [No]
# … with 3,891 more rows, and 7 more variables: DIA <tibble[,3]>,
#   EMRG <tibble[,3]>, FC <tibble[,3]>, FOAM <tibble[,3]>,
#   IMP <tibble[,3]>, IUD <tibble[,3]>, PILL <tibble[,3]>
…
# One `AVAIL` variable was added to each pack
dat_packed %>% select(where(is_tibble))

# A tibble: 3,901 × 9
   BEADS$COUNSEL      $OBS  $OUT3MO $AVAIL CON$COUNSEL    $OBS $OUT3MO
       <int+lbl> <int+lbl> <int+lb> <fct>    <int+lbl> <int+l> <int+l>
 1        0 [No] 99 [NIU … 99 [NIU… not p…      0 [No] 1 [In-…  0 [No]
 2        0 [No] 99 [NIU … 99 [NIU… not p…      0 [No] 1 [In-…  0 [No]
 3        0 [No] 99 [NIU … 99 [NIU… not p…      0 [No] 1 [In-…  0 [No]
 4        0 [No] 99 [NIU … 99 [NIU… not p…      0 [No] 1 [In-…  0 [No]
 5        0 [No] 99 [NIU … 99 [NIU… not p…      0 [No] 1 [In-…  0 [No]
 6        0 [No] 99 [NIU … 99 [NIU… not p…      0 [No] 1 [In-…  0 [No]
 7        0 [No] 99 [NIU … 99 [NIU… not p…      0 [No] 1 [In-…  0 [No]
 8        0 [No] 99 [NIU … 99 [NIU… not p…      0 [No] 1 [In-…  0 [No]
 9        0 [No] 99 [NIU … 99 [NIU… not p…      0 [No] 1 [In-…  0 [No]
10        0 [No] 99 [NIU … 99 [NIU… not p…      0 [No] 1 [In-…  0 [No]
# … with 3,891 more rows, and 7 more variables: DIA <tibble[,4]>,
#   EMRG <tibble[,4]>, FC <tibble[,4]>, FOAM <tibble[,4]>,
#   IMP <tibble[,4]>, IUD <tibble[,4]>, PILL <tibble[,4]>
…
    IMP = glm(METHCOUNIMP ~ IMPAVAIL, "binomial", cur_data()) %>% 
      broom::tidy(exp = TRUE) %>% 
      list(),
    IUD = glm(METHCOUNIUD ~ IUDAVAIL, "binomial", cur_data()) %>% 
      broom::tidy(exp = TRUE) %>% 
      list(),
    PILL = glm(METHCOUNPILL ~ PILLAVAIL, "binomial", cur_data()) %>% 
      broom::tidy(exp = TRUE) %>% 
      list()
  ) %>% 
  pivot_longer(everything(), names_to = "COUNSELED") %>% 
  unnest(value) %>% 
  mutate(across(where(is.double), ~round(.x, 2)))

# A tibble: 26 × 6
   COUNSELED term                 estimate std.error statistic p.value
   <chr>     <chr>                   <dbl>     <dbl>     <dbl>   <dbl>
 1 BEADS     (Intercept)           1   e-2      0.23    -19.0     0   
 2 BEADS     BEADSAVAILcur/rec …   2.14e+0      0.42      1.8     0.07
 3 BEADS     BEADSAVAILnot prov…   2.16e+0      0.26      2.97    0   
 4 CON       (Intercept)           2.1 e-1      0.05    -34.3     0   
 5 CON       CONAVAILcur/rec st…   1.25e+0      0.12      1.85    0.06
 6 CON       CONAVAILnot provid…   0          280.       -0.05    0.96
 7 DIA       (Intercept)           0          822.       -0.02    0.98
 8 DIA       DIAAVAILcur/rec st…   1   e+0   1615.        0       1   
 9 DIA       DIAAVAILnot provid…   1.72e+6    822.        0.02    0.99
10 EMRG      (Intercept)           6   e-2      0.09    -29.3     0   
# … with 16 more rows
Again - there’s nothing wrong this output. But, with the packed approach we’ll be able to 1) easily substitute method-specific variables in each model without repeating ourselves, and 2) we can use pack names for each model in the COUNSELED column while removing extra text from the term column.

dat_packed %>%
  summarise(across(
    where(is_tibble),
    ~glm(COUNSEL ~ AVAIL, "binomial", .x) %>%
      broom::tidy(exp = TRUE) %>%
      list()
  )) %>%
  pivot_longer(everything(), names_to = "COUNSELED") %>%
  unnest(value) %>%
  mutate(across(where(is.double), ~round(.x, 2))) %>%
  mutate(term = term %>% str_remove("AVAIL"))

# A tibble: 26 × 6
   COUNSELED term               estimate std.error statistic p.value
   <chr>     <chr>                 <dbl>     <dbl>     <dbl>   <dbl>
 1 BEADS     (Intercept)            0.01      0.23    -19.0     0   
 2 BEADS     cur/rec stockout       2.14      0.42      1.8     0.07
 3 BEADS     not provided           2.16      0.26      2.97    0   
 4 CON       (Intercept)            0.21      0.05    -34.3     0   
 5 CON       cur/rec stockout       1.25      0.12      1.85    0.06
 6 CON       not provided           0       280.       -0.05    0.96
 7 DIA       (Intercept)            0       822.       -0.02    0.98
 8 DIA       cur/rec stockout       1      1615.        0       1   
 9 DIA       not provided     1722429.      822.        0.02    0.99
10 EMRG      (Intercept)            0.13      0.48     -4.26    0   
# … with 16 more rows
…
dat_packed %>%
  mutate(PARTNERED = MARSTAT %in% 21:22) %>%
  summarise(across(
    where(is_tibble),
    # You can select variables both within and outside of each pack 
    ~glm(COUNSEL ~ AVAIL + AGE + PARTNERED + BIRTHEVENT, "binomial", .x) %>%
      broom::tidy(exp = TRUE) %>%
      list()
  )) %>%
  pivot_longer(everything(), names_to = "COUNSELED") %>%
  unnest(value) %>%
  mutate(across(where(is.double), ~round(.x, 2))) %>%
  mutate(term = term %>% str_remove("AVAIL") %>% str_remove("TRUE"))

# A tibble: 53 × 6
   COUNSELED term             estimate std.error statistic p.value
   <chr>     <chr>               <dbl>     <dbl>     <dbl>   <dbl>
 1 BEADS     (Intercept)          0.02      0.56     -7.5     0   
 2 BEADS     cur/rec stockout     2.17      0.42      1.82    0.07
 3 BEADS     not provided         2.22      0.26      3.07    0   
 4 BEADS     AGE                  1.01      0.02      0.32    0.75
 5 BEADS     PARTNERED            1.34      0.31      0.93    0.35
 6 BEADS     BIRTHEVENT           0.8       0.09     -2.51    0.01
 7 CON       (Intercept)          0.4       0.2      -4.7     0   
 8 CON       cur/rec stockout     1.25      0.12      1.85    0.06
 9 CON       not provided         0       279.       -0.05    0.96
10 CON       AGE                  0.99      0.01     -1.48    0.14
# … with 43 more rows
…
Error: Names must be unique.
x These names are duplicated:
  * "COUNSEL" at locations 411, 415, 419, 423, 427, etc.
  * "OBS" at locations 412, 416, 420, 424, 428, etc.
  * "OUT3MO" at locations 413, 417, 421, 425, 429, etc.
  * "AVAIL" at locations 414, 418, 422, 426, 430, etc.
ℹ Use argument `names_repair` to specify repair strategy.

In our case, we’ll use the pack name as a prefix for each new variable name. We’ll use names_sep = "_" to separate each prefix with an underscore:

dat_packed %>%
  select(where(is_tibble)) %>%
  unpack(where(is_tibble), names_sep = "_")

# A tibble: 3,901 × 36
   BEADS_COUNSEL     BEADS_OBS    BEADS_OUT3MO BEADS_AVAIL CON_COUNSEL
       <int+lbl>     <int+lbl>       <int+lbl> <fct>         <int+lbl>
 1        0 [No] 99 [NIU (not… 99 [NIU (not i… not provid…      0 [No]
 2        0 [No] 99 [NIU (not… 99 [NIU (not i… not provid…      0 [No]
 3        0 [No] 99 [NIU (not… 99 [NIU (not i… not provid…      0 [No]
 4        0 [No] 99 [NIU (not… 99 [NIU (not i… not provid…      0 [No]
 5        0 [No] 99 [NIU (not… 99 [NIU (not i… not provid…      0 [No]
 6        0 [No] 99 [NIU (not… 99 [NIU (not i… not provid…      0 [No]
 7        0 [No] 99 [NIU (not… 99 [NIU (not i… not provid…      0 [No]
 8        0 [No] 99 [NIU (not… 99 [NIU (not i… not provid…      0 [No]
 9        0 [No] 99 [NIU (not… 99 [NIU (not i… not provid…      0 [No]
10        0 [No] 99 [NIU (not… 99 [NIU (not i… not provid…      0 [No]
# … with 3,891 more rows, and 31 more variables: CON_OBS <int+lbl>,
#   CON_OUT3MO <int+lbl>, CON_AVAIL <fct>, DIA_COUNSEL <int+lbl>,
#   DIA_OBS <int+lbl>, DIA_OUT3MO <int+lbl>, DIA_AVAIL <fct>,
#   EMRG_COUNSEL <int+lbl>, EMRG_OBS <int+lbl>,
#   EMRG_OUT3MO <int+lbl>, EMRG_AVAIL <fct>, FC_COUNSEL <int+lbl>,
#   FC_OBS <int+lbl>, FC_OUT3MO <int+lbl>, FC_AVAIL <fct>,
#   FOAM_COUNSEL <int+lbl>, FOAM_OBS <int+lbl>, …
…
