Data Analysis Hub: Three ways to visualize binary survey data
…
 RStudio (CC0 1.0)

The resulting table has one row for each unique combination of COUNTRY, QUESTION, and SOURCE.

summary

# A tibble: 104 x 7
   COUNTRY    QUESTION SOURCE       EST   LOW   UPP QTEXT             
   <fct>      <chr>    <fct>      <dbl> <dbl> <dbl> <chr>             
 1 Burkina F CVTRUST  Family      73.3  68.0  78.7 Which do you trus
 2 Burkina F CVTRUST  Friends /  67.6  62.2  73.0 Which do you trus
 3 Burkina F CVTRUST  Government  76.8  69.4  84.2 Which do you trus
 4 Burkina F CVTRUST  Health Wo  89.0  85.5  92.5 Which do you trus
 5 Burkina F CVTRUST  Community  74.3  69.4  79.2 Which do you trus
 6 Burkina F CVTRUST  Newpaper    45.6  39.0  52.3 Which do you trus
 7 Burkina F CVTRUST  Phone Mes  50.0  44.6  55.5 Which do you trus
 8 Burkina F CVTRUST  Poster /   54.6  48.6  60.5 Which do you trus
 9 Burkina F CVTRUST  Radio       90.7  88.1  93.3 Which do you trus
10 Burkina F CVTRUST  School      67.2  60.0  74.4 Which do you trus
11 Burkina F CVTRUST  Social Me  38.3  33.0  43.5 Which do you trus
12 Burkina F CVTRUST  Town Crier  58.5  53.2  63.8 Which do you trus
13 Burkina F CVTRUST  TV          72.7  67.2  78.3 Which do you trus
14 DRC (Kins CVTRUST  Family      31.3  23.2  39.5 Which do you trus
15 DRC (Kins CVTRUST  Friends /  27.7  20.7  34.8 Which do you trus
#  with 89 more rows
…
