Update: Matching Records in 2018 Nutrition Surveys
…
For grouped data, cur_data() returns a dataset with one row for each member of the group.

If you now look at dat, you’ll see we’ve stored one table in HH_DATA for each person. If you opened one of those tables, you’d see:

one row for each person living in the individual’s household

all columns from dat except for the grouping column HHID (10 in total)

dat %>% select(PERSONID, HHID, HH_DATA)

# A tibble: 5,267 × 3
   PERSONID  HHID HH_DATA          
      <int> <int> <list>           
 1        1     1 <tibble [3 × 10]>
 2        2     1 <tibble [3 × 10]>
 3        3     1 <tibble [3 × 10]>
 4        4     2 <tibble [2 × 10]>
 5        5     2 <tibble [2 × 10]>
 6        6     3 <tibble [2 × 10]>
 7        7     3 <tibble [2 × 10]>
 8        8     4 <tibble [1 × 10]>
 9        9     5 <tibble [5 × 10]>
10       10     5 <tibble [5 × 10]>
# … with 5,257 more rows
…
The first three individuals are members of the same household, so they appear in eachother’s HH_DATA. The fourth is a member of a second household, and so on.

For our purposes, it’s perfectly fine to leave the household datasets in a list. Once we define a search function to find each child’s mother, we’ll simply apply it to each row of HH_DATA. For example, suppose we just wanted to find the age of the oldest person in each household. We would use rowwise to iterate over each row in dat, looking for the maximum value of AGEHQ in the HH_DATA table stored in each row.

dat %>% 
  rowwise() %>% 
  mutate(HH_AGE_OLDEST = max(HH_DATA$AGEHQ)) %>% 
  select(PERSONID, HHID, AGEHQ, HH_AGE_OLDEST)

# A tibble: 5,267 × 4
# Rowwise: 
   PERSONID  HHID     AGEHQ HH_AGE_OLDEST
      <int> <int> <int+lbl>     <int+lbl>
 1        1     1         4             4
 2        2     1         2             4
 3        3     1         2             4
 4        4     2         3            25
 5        5     2        25            25
 6        6     3         1             4
 7        7     3         4             4
 8        8     4         2             2
 9        9     5         4            27
10       10     5         2            27
# … with 5,257 more rows
…
