Visualizing perceptions of risk from COVID-19
…
Stat

In each of the above plots, we’ve relied on the default behavior of geom_bar() to calculate the frequency of each response and - when requested - to stretch each bar to a normalized length. There are many reasons why you might want to pass your own statistics to geom_bar(), and you can do so with the argument stat = "identity".

For example, we might create a table of summary statistics showing the proportion of responses to COVIDCONCERN by COUNTRY:

concern_tbl <- covid %>% 
  as_survey_design() %>%
  group_by(COUNTRY, COVIDCONCERN) %>%
  summarise(PERCENT = 100 * survey_mean(vartype = NULL))

concern_tbl

# A tibble: 25 x 3
# Groups:   COUNTRY [4]
   COUNTRY        COVIDCONCERN                                 PERCENT
   <fct>          <fct>                                          <dbl>
 1 Burkina Faso   Not concerned                                 6.75  
 2 Burkina Faso   A little concerned                           10.3   
 3 Burkina Faso   Concerned                                    21.3   
 4 Burkina Faso   Very concerned                               61.5   
 5 Burkina Faso   Currently / previously infected with COVID-…  0.0567
 6 Burkina Faso   Never heard or read about COVID-19            0.0850
 7 DRC (Kinshasa) Not concerned                                19.6   
 8 DRC (Kinshasa) A little concerned                           12.2   
 9 DRC (Kinshasa) Concerned                                    15.9   
10 DRC (Kinshasa) Very concerned                               52.0   
# … with 15 more rows
…
A grouped bar chart showing response percentages per sample

You might also consider pre-calculating statistics if you want to add layers of text or error bars to your plot. As we’ve discussed elsewhere, we love using as_survey_design() and survey_mean() from the srvyr package to generate population-level estimates with cluster-robust standard errors. Here, we’ll use CVQWEIGHT as a weighting variable and EAID as the identification number for each sample cluster, thus creating a population-level summary table called concern_pop:

concern_pop <- covid %>% 
  as_survey_design(weight = CVQWEIGHT, id = EAID) %>%
  group_by(COUNTRY, COVIDCONCERN) %>%
  summarise(PERCENT = 100 * survey_mean(vartype = "ci"))

concern_pop

# A tibble: 25 x 5
# Groups:   COUNTRY [4]
   COUNTRY    COVIDCONCERN             PERCENT PERCENT_low PERCENT_upp
   <fct>      <fct>                      <dbl>       <dbl>       <dbl>
 1 Burkina F… Not concerned             6.18        3.70        8.66  
 2 Burkina F… A little concerned        8.35        5.61       11.1   
 3 Burkina F… Concerned                17.7        14.3        21.2   
 4 Burkina F… Very concerned           67.7        62.1        73.3   
 5 Burkina F… Currently / previously …  0.0251     -0.0103      0.0604
 6 Burkina F… Never heard or read abo…  0.0484     -0.0149      0.112 
 7 DRC (Kins… Not concerned            18.8        14.9        22.7   
 8 DRC (Kins… A little concerned        9.77        7.71       11.8   
 9 DRC (Kins… Concerned                17.0        13.0        21.1   
10 DRC (Kins… Very concerned           54.0        48.5        59.5   
# … with 15 more rows
…
pg_tbl

# A tibble: 28 x 3
# Groups:   COUNTRY [4]
   COUNTRY        PREGFEELNOW             PERCENT
   <fct>          <fct>                     <dbl>
 1 Burkina Faso   Very unhappy            -29.1  
 2 Burkina Faso   Sort of unhappy         -11.1  
 3 Burkina Faso   Mixed happy and unhappy   5.65 
 4 Burkina Faso   Sort of happy            15.0  
 5 Burkina Faso   Very happy               30.8  
 6 Burkina Faso   No response or missing    0.333
 7 Burkina Faso   Currently Pregnant        7.99 
 8 DRC (Kinshasa) Very unhappy            -44.6  
 9 DRC (Kinshasa) Sort of unhappy         -11.2  
10 DRC (Kinshasa) Mixed happy and unhappy   5.90 
# … with 18 more rows

Next, we’ll create a new column that indicates whether we want each response to appear in the second panel in our faceted display. Let’s call this column ASIDE:

pg_tbl <- pg_tbl %>% 
  mutate(ASIDE = PREGFEELNOW %in% c(
      "Mixed happy and unhappy",
      "No response or missing",
      "Currently Pregnant" 
  ))

pg_tbl

# A tibble: 28 x 4
# Groups:   COUNTRY [4]
   COUNTRY        PREGFEELNOW             PERCENT ASIDE
   <fct>          <fct>                     <dbl> <lgl>
 1 Burkina Faso   Very unhappy            -29.1   FALSE
 2 Burkina Faso   Sort of unhappy         -11.1   FALSE
 3 Burkina Faso   Mixed happy and unhappy   5.65  TRUE 
 4 Burkina Faso   Sort of happy            15.0   FALSE
 5 Burkina Faso   Very happy               30.8   FALSE
 6 Burkina Faso   No response or missing    0.333 TRUE 
 7 Burkina Faso   Currently Pregnant        7.99  TRUE 
 8 DRC (Kinshasa) Very unhappy            -44.6   FALSE
 9 DRC (Kinshasa) Sort of unhappy         -11.2   FALSE
10 DRC (Kinshasa) Mixed happy and unhappy   5.90  TRUE 
# … with 18 more rows
…
covid_pop <- covid %>% 
  select(COUNTRY, CVQWEIGHT, EAID, COVIDCONCERN, COMMCOVIDWORRY) %>% 
  pivot_longer(
    c(COVIDCONCERN, COMMCOVIDWORRY),
    names_to = "QUESTION",
    values_to = "RESPONSE"
  ) %>% 
  as_survey_design(weight = CVQWEIGHT, id = EAID) %>%
  group_by(COUNTRY, QUESTION, RESPONSE) %>% 
  summarise(PERCENT = survey_mean(vartype = NULL)) %>% 
  filter(grepl("concern", RESPONSE, ignore.case = T)) 

covid_pop

# A tibble: 32 x 4
# Groups:   COUNTRY, QUESTION [8]
   COUNTRY        QUESTION       RESPONSE           PERCENT
   <fct>          <chr>          <fct>                <dbl>
 1 Burkina Faso   COMMCOVIDWORRY Not concerned       0.0422
 2 Burkina Faso   COMMCOVIDWORRY A little concerned  0.0741
 3 Burkina Faso   COMMCOVIDWORRY Concerned           0.215 
 4 Burkina Faso   COMMCOVIDWORRY Very concerned      0.668 
 5 Burkina Faso   COVIDCONCERN   Not concerned       0.0618
 6 Burkina Faso   COVIDCONCERN   A little concerned  0.0835
 7 Burkina Faso   COVIDCONCERN   Concerned           0.177 
 8 Burkina Faso   COVIDCONCERN   Very concerned      0.677 
 9 DRC (Kinshasa) COMMCOVIDWORRY Not concerned       0.161 
10 DRC (Kinshasa) COMMCOVIDWORRY A little concerned  0.0943
# … with 22 more rows
…
