Data Visualization Toolkit for PMA Panel Data
…
status_tbl <- dat %>% 
  group_by(POP) %>% 
  summarise(
    .groups = "keep",
    cur_data() %>% 
      as_survey_design(weight = PANELWEIGHT, id = EAID_1, strata = STRATA_RECODE) %>%
      group_by(FPSTATUS_1, FPSTATUS_2) %>% 
      summarise(survey_mean(prop = TRUE, prop_method = "logit", vartype = "ci"))
  )

status_tbl

# A tibble: 54 × 6
# Groups:   POP [6]
   POP            FPSTATUS_1   FPSTATUS_2     coef `_low` `_upp`
   <chr>          <fct>        <fct>         <dbl>  <dbl>  <dbl>
 1 Burkina Faso   Pregnant     Pregnant     0.0302 0.0137 0.0652
 2 Burkina Faso   Pregnant     Not Using FP 0.568  0.491  0.642 
 3 Burkina Faso   Pregnant     Using FP     0.401  0.329  0.478 
 4 Burkina Faso   Not Using FP Pregnant     0.0779 0.0651 0.0929
 5 Burkina Faso   Not Using FP Not Using FP 0.739  0.711  0.765 
 6 Burkina Faso   Not Using FP Using FP     0.183  0.158  0.211 
 7 Burkina Faso   Using FP     Pregnant     0.0993 0.0815 0.121 
 8 Burkina Faso   Using FP     Not Using FP 0.248  0.213  0.287 
 9 Burkina Faso   Using FP     Using FP     0.653  0.609  0.694 
10 DRC - Kinshasa Pregnant     Pregnant     0.0367 0.0140 0.0930
# … with 44 more rows
…
row_margins <- dat %>% 
  group_by(POP) %>% 
  summarise(
    .groups = "keep",
    cur_data() %>% 
      as_survey_design(weight = PANELWEIGHT, id = EAID_1, strata = STRATA_RECODE) %>%
      group_by(FPSTATUS_2) %>% 
      summarise(rows = survey_mean(prop = TRUE, prop_method = "logit", vartype = NULL))
  )

status_tbl <- status_tbl %>% right_join(col_margins) %>% right_join(row_margins)

status_tbl

# A tibble: 54 × 8
# Groups:   POP [6]
   POP            FPSTATUS_1   FPSTATUS_2     coef `_low` `_upp`   cols   rows
   <chr>          <fct>        <fct>         <dbl>  <dbl>  <dbl>  <dbl>  <dbl>
 1 Burkina Faso   Pregnant     Pregnant     0.0302 0.0137 0.0652 0.0879 0.0799
 2 Burkina Faso   Pregnant     Not Using FP 0.568  0.491  0.642  0.0879 0.583 
 3 Burkina Faso   Pregnant     Using FP     0.401  0.329  0.478  0.0879 0.337 
 4 Burkina Faso   Not Using FP Pregnant     0.0779 0.0651 0.0929 0.624  0.0799
 5 Burkina Faso   Not Using FP Not Using FP 0.739  0.711  0.765  0.624  0.583 
 6 Burkina Faso   Not Using FP Using FP     0.183  0.158  0.211  0.624  0.337 
 7 Burkina Faso   Using FP     Pregnant     0.0993 0.0815 0.121  0.288  0.0799
 8 Burkina Faso   Using FP     Not Using FP 0.248  0.213  0.287  0.288  0.583 
 9 Burkina Faso   Using FP     Using FP     0.653  0.609  0.694  0.288  0.337 
10 DRC - Kinshasa Pregnant     Pregnant     0.0367 0.0140 0.0930 0.0552 0.0533
# … with 44 more rows
…
In contrast with the conditional distribution, this type of
distribution describes the share of the population that experiences some
combination of Phase 1 and Phase 2 outcomes without assuming a
particular starting point at Phase 1. It’s known as a joint
distribution because it gives the probability that two events
will happen together (in sequence). Let’s return to our summary table,
status_tbl:

status_tbl

# A tibble: 54 × 8
# Groups:   POP [6]
   POP            FPSTATUS_1   FPSTATUS_2     coef `_low` `_upp`   cols   rows
   <chr>          <fct>        <fct>         <dbl>  <dbl>  <dbl>  <dbl>  <dbl>
 1 Burkina Faso   Pregnant     Pregnant     0.0302 0.0137 0.0652 0.0879 0.0799
 2 Burkina Faso   Pregnant     Not Using FP 0.568  0.491  0.642  0.0879 0.583 
 3 Burkina Faso   Pregnant     Using FP     0.401  0.329  0.478  0.0879 0.337 
 4 Burkina Faso   Not Using FP Pregnant     0.0779 0.0651 0.0929 0.624  0.0799
 5 Burkina Faso   Not Using FP Not Using FP 0.739  0.711  0.765  0.624  0.583 
 6 Burkina Faso   Not Using FP Using FP     0.183  0.158  0.211  0.624  0.337 
 7 Burkina Faso   Using FP     Pregnant     0.0993 0.0815 0.121  0.288  0.0799
 8 Burkina Faso   Using FP     Not Using FP 0.248  0.213  0.287  0.288  0.583 
 9 Burkina Faso   Using FP     Using FP     0.653  0.609  0.694  0.288  0.337 
10 DRC - Kinshasa Pregnant     Pregnant     0.0367 0.0140 0.0930 0.0552 0.0533
# … with 44 more rows

To find the estimated joint distribution for each combination of
FPSTATUS_1 and FPSTATUS_2, you could simply
multiply each value in cols by the value in
coef:

status_tbl %>% mutate(joint = cols * coef)

# A tibble: 54 × 9
# Groups:   POP [6]
   POP            FPSTATUS_1   FPSTATUS_2     coef `_low` `_upp`   cols   rows   joint
   <chr>          <fct>        <fct>         <dbl>  <dbl>  <dbl>  <dbl>  <dbl>   <dbl>
 1 Burkina Faso   Pregnant     Pregnant     0.0302 0.0137 0.0652 0.0879 0.0799 0.00266
 2 Burkina Faso   Pregnant     Not Using FP 0.568  0.491  0.642  0.0879 0.583  0.0499 
 3 Burkina Faso   Pregnant     Using FP     0.401  0.329  0.478  0.0879 0.337  0.0353 
 4 Burkina Faso   Not Using FP Pregnant     0.0779 0.0651 0.0929 0.624  0.0799 0.0486 
 5 Burkina Faso   Not Using FP Not Using FP 0.739  0.711  0.765  0.624  0.583  0.461  
 6 Burkina Faso   Not Using FP Using FP     0.183  0.158  0.211  0.624  0.337  0.114  
 7 Burkina Faso   Using FP     Pregnant     0.0993 0.0815 0.121  0.288  0.0799 0.0286 
 8 Burkina Faso   Using FP     Not Using FP 0.248  0.213  0.287  0.288  0.583  0.0713 
 9 Burkina Faso   Using FP     Using FP     0.653  0.609  0.694  0.288  0.337  0.188  
10 DRC - Kinshasa Pregnant     Pregnant     0.0367 0.0140 0.0930 0.0552 0.0533 0.00203
# … with 44 more rows
…
joint_tbl <- dat %>% 
  group_by(POP) %>% 
  summarise(
    .groups = "keep",
    cur_data() %>% 
      as_survey_design(weight = PANELWEIGHT, id = EAID_1, strata = STRATA_RECODE) %>%
      group_by(interact(FPSTATUS_1, FPSTATUS_2)) %>% 
      summarise(joint = survey_mean(prop = TRUE, prop_method = "logit", vartype = "ci"))
  )
  
joint_tbl

# A tibble: 54 × 6
# Groups:   POP [6]
   POP            FPSTATUS_1   FPSTATUS_2     joint joint_low joint_upp
   <chr>          <fct>        <fct>          <dbl>     <dbl>     <dbl>
 1 Burkina Faso   Pregnant     Pregnant     0.00266  0.00120    0.00587
 2 Burkina Faso   Pregnant     Not Using FP 0.0499   0.0404     0.0615 
 3 Burkina Faso   Pregnant     Using FP     0.0353   0.0291     0.0427 
 4 Burkina Faso   Not Using FP Pregnant     0.0486   0.0402     0.0588 
 5 Burkina Faso   Not Using FP Not Using FP 0.461    0.428      0.495  
 6 Burkina Faso   Not Using FP Using FP     0.114    0.100      0.130  
 7 Burkina Faso   Using FP     Pregnant     0.0286   0.0228     0.0357 
 8 Burkina Faso   Using FP     Not Using FP 0.0713   0.0613     0.0829 
 9 Burkina Faso   Using FP     Using FP     0.188    0.164      0.214  
10 DRC - Kinshasa Pregnant     Pregnant     0.00203  0.000794   0.00515
# … with 44 more rows
…
joint_tbl <- joint_tbl %>% 
  rowid_to_column("alluvium") %>% 
  pivot_longer(
    c(FPSTATUS_1, FPSTATUS_2), 
    names_to = "x", 
    values_to = "stratum"
  ) %>% 
  mutate(x = ifelse(x == "FPSTATUS_1", "Phase 1", "Phase 2")) %>% 
  arrange(x, alluvium)

joint_tbl

# A tibble: 108 × 7
# Groups:   POP [6]
   alluvium POP              joint joint_low joint_upp x       stratum     
      <int> <chr>            <dbl>     <dbl>     <dbl> <chr>   <fct>       
 1        1 Burkina Faso   0.00266  0.00120    0.00587 Phase 1 Pregnant    
 2        2 Burkina Faso   0.0499   0.0404     0.0615  Phase 1 Pregnant    
 3        3 Burkina Faso   0.0353   0.0291     0.0427  Phase 1 Pregnant    
 4        4 Burkina Faso   0.0486   0.0402     0.0588  Phase 1 Not Using FP
 5        5 Burkina Faso   0.461    0.428      0.495   Phase 1 Not Using FP
 6        6 Burkina Faso   0.114    0.100      0.130   Phase 1 Not Using FP
 7        7 Burkina Faso   0.0286   0.0228     0.0357  Phase 1 Using FP    
 8        8 Burkina Faso   0.0713   0.0613     0.0829  Phase 1 Using FP    
 9        9 Burkina Faso   0.188    0.164      0.214   Phase 1 Using FP    
10       10 DRC - Kinshasa 0.00203  0.000794   0.00515 Phase 1 Pregnant    
# … with 98 more rows
…
