Comparing Measures of Abortion Incidence with a Shiny Dashboard
…
Summary statistics

Your analytic dataset should now look something like this:

dat 

# A tibble: 13,844 × 15
   country  weight  eaid strata   yrs age   urban edu   wealth marstat all   reg   abor  any     avg
   <fct>     <dbl> <dbl>  <int> <dbl> <fct> <fct> <fct> <fct>  <fct>   <chr> <lgl> <lgl> <lgl> <dbl>
 1 Cote d'…  0.574 11543  38401  1.5  30-34 Urban Seco… Higher Partne… All   FALSE FALSE FALSE   0  
 2 Cote d'…  1.26  11498  38401  1.5  15-19 Urban Never Highe… Never … All   FALSE FALSE FALSE   0  
 3 Cote d'…  0.766 11148  38402  1.5  20-24 Rural Prim… Middle Partne… All   FALSE FALSE FALSE   0  
 4 Cote d'…  0.983 11142  38401  1.5  15-19 Urban Seco… Higher Never … All   FALSE FALSE FALSE   0  
 5 Cote d'…  1.45  11279  38401  1.5  30-34 Urban Seco… Highe… Never … All   FALSE FALSE FALSE   0  
 6 Cote d'…  0.653 11989  38401  1.5  40+   Urban Never Middle Separa… All   FALSE FALSE FALSE   0  
 7 Cote d'…  1.15  11040  38402  1.58 40+   Rural Prim… Middle Separa… All   FALSE FALSE FALSE   0  
 8 Cote d'…  0.627 11331  38401  1.58 15-19 Urban Prim… Highe… Never … All   FALSE FALSE FALSE   0  
 9 Cote d'…  0.875 11898  38401  1.5  20-24 Urban High… Higher Never … All   TRUE  FALSE TRUE    0.5
10 Cote d'…  0.983 11142  38401  1.5  25-29 Urban Never Highe… Partne… All   FALSE FALSE FALSE   0  
# … with 13,834 more rows
…
