Data Analysis Hub: Making the Contraceptive Calendar Data Work For You
…
dat <- read_ipums_micro(
  ddi = "data/pma_00001.xml",
  data = "data/pma_00001.dat.gz"
) 

This code looks for my data file and DDI codebook in a folder called data inside of my R working directory. Make sure to change these paths as needed!

When you open any IPUMS PMA data extract from the Household and Female Survey, youll find the data organized with one respondent per row. Here, there are 9,549 rows each representing one female respondent (all other household members have been excluded):

dat 

# A tibble: 9,549 x 17
         SAMPLE COUNTRY  YEAR HHID  PERSONID ELIGIBLE   EAID CONSENTFQ
      <int+lbl> <int+l> <int> <chr> <chr>    <int+lb>  <dbl> <int+lbl>
 1 40410 [Keny 7 [Ken  2019 4042 4042019 1 [Yes, 4.04e8   1 [Yes]
 2 40410 [Keny 7 [Ken  2019 4042 4042019 1 [Yes, 4.04e8   1 [Yes]
 3 40410 [Keny 7 [Ken  2019 4042 4042019 1 [Yes, 4.04e8   1 [Yes]
 4 40410 [Keny 7 [Ken  2019 4042 4042019 1 [Yes, 4.04e8   1 [Yes]
 5 40410 [Keny 7 [Ken  2019 4042 4042019 1 [Yes, 4.04e8   1 [Yes]
 6 40410 [Keny 7 [Ken  2019 4042 4042019 1 [Yes, 4.04e8   1 [Yes]
 7 40410 [Keny 7 [Ken  2019 4042 4042019 1 [Yes, 4.04e8   1 [Yes]
 8 40410 [Keny 7 [Ken  2019 4042 4042019 1 [Yes, 4.04e8   1 [Yes]
 9 40410 [Keny 7 [Ken  2019 4042 4042019 1 [Yes, 4.04e8   1 [Yes]
10 40410 [Keny 7 [Ken  2019 4042 4042019 1 [Yes, 4.04e8   1 [Yes]
11 40410 [Keny 7 [Ken  2019 4042 4042019 1 [Yes, 4.04e8   1 [Yes]
12 40410 [Keny 7 [Ken  2019 4042 4042019 1 [Yes, 4.04e8   1 [Yes]
13 40410 [Keny 7 [Ken  2019 4042 4042019 1 [Yes, 4.04e8   1 [Yes]
14 40410 [Keny 7 [Ken  2019 4042 4042019 1 [Yes, 4.04e8   1 [Yes]
15 40410 [Keny 7 [Ken  2019 4042 4042019 1 [Yes, 4.04e8   1 [Yes]
16 40410 [Keny 7 [Ken  2019 4042 4042019 1 [Yes, 4.04e8   1 [Yes]
17 40410 [Keny 7 [Ken  2019 4042 4042019 1 [Yes, 4.04e8   1 [Yes]
18 40410 [Keny 7 [Ken  2019 4042 4042019 1 [Yes, 4.04e8   1 [Yes]
19 40410 [Keny 7 [Ken  2019 4042 4042019 1 [Yes, 4.04e8   1 [Yes]
20 40410 [Keny 7 [Ken  2019 4042 4042019 1 [Yes, 4.04e8   1 [Yes]
#  with 9,529 more rows, and 9 more variables: FQINSTID <chr>,
#   CONSENTHQ <int+lbl>, FQWEIGHT <dbl>, STRATA <int+lbl>,
#   SUBNATIONAL <int+lbl>, AGE <int+lbl>, BIRTHEVENT <int+lbl>,
#   WORKYR <int+lbl>, CALENDARKE <chr+lbl>

For the purpose of this exercise only we create a short identifying number for each respondent called ID. Then, we select only the variables ID and CALENDARKE (dropping all of the other variables pre-selected for every IPUMS PMA extract).

In practice, you should use the variable PERSONID to track unique respondents; we use ID instead here only because it fits better on the screen.

dat <- dat %>% 
  rowid_to_column("ID") %>% 
  select(ID, CALENDARKE)

dat

# A tibble: 9,549 x 2
      ID CALENDARKE                                                   
   <int> <chr+lbl>                                                    
 1     1 0,0,B,P,P,P,P,P,P,P,P,0,0,0,0,0,0,0,0,0,0,0,0,3,3,3,3,3,3,3,
 2     2 ,7,7,7,7,7,7,7,7,0,B,P,P,P,P,P,P,P,P,0,0,0,0,0,9,9,9,9,9,9,9
 3     3 0,0,0,0,0,0,0,0,0,0,0,0,0,0,0,0,0,0,0,0,0,0,0,0,0,0,0,0,0,0,
 4     4 0,0,0,0,0,0,0,0,0,0,0,0,0,0,0,0,0,0,0,0,0,0,0,0,0,0,0,0,0,0,
 5     5 ,5,5,5,5,5,5,5,5,5,5,5,5,5,5,5,5,B,P,P,P,P,P,P,P,P,0,0,0,0,0
 6     6 5,5,5,5,5,5,5,5,5,5,5,5,5,5,5,5,5,5,5,5,5,5,5,5,5,5,5,5,5,5,
 7     7 5,5,5,5,5,5,0,0,0,0,0,0,0,0,0,0,0,0,0,0,0,0,0,0,B,P,P,P,P,P,
 8     8 P,P,P,P,P,P,P,P,0,0,0,0,0,0,0,14,14,14,14,14,14,14,B,P,P,P,P
 9     9 0,0,0,0,0,0,0,0,0,0,0,0,0,0,0,0,0,0,0,0,0,0,0,0,0,0,0,0,0,0,
10    10 ,P,P,P,9,9,9,9,9,9,9,9,9,9,9,9,9,9,9,9,9,9,9,9,9,9,9,9,9,9,9
11    11 ,0,0,0,0,0,0,0,0,0,0,0,0,0,0,0,0,0,0,0,0,0,0,0,0,0,0,0,0,0,0
12    12 ,0,0,0,0,0,0,0,0,0,0,0,0,0,0,0,0,0,0,0,0,0,0,0,0,0,0,0,0,0,0
13    13 ,P,P,P,P,P,P,P,9,9,9,9,9,9,9,9,9,9,9,9,9,9,9,9,9,9,9,9,9,9,9
14    14 0,0,0,0,0,0,0,0,0,0,0,0,0,0,0,0,0,0,0,0,0,0,0,0,0,0,0,0,0,0,
15    15 0,0,0,0,0,0,0,0,0,0,0,0,0,0,0,0,0,0,0,0,0,0,0,0,0,0,0,0,0,14
16    16 3,3,3,3,3,3,3,3,3,3,3,3,3,3,3,3,3,3,3,3,3,3,3,3,3,3,3,3,3,3,
17    17 ,5,5,5,5,5,5,5,5,5,5,5,5,5,5,5,5,5,5,5,5,5,5,5,5,5,5,5,5,5,5
18    18 ,5,5,5,5,5,5,5,5,5,5,5,7,7,7,7,7,7,7,7,7,7,7,7,7,7,7,7,7,7,7
19    19 0,0,0,0,0,0,9,0,0,0,0,0,0,0,0,0,0,0,0,0,0,0,0,0,0,0,0,0,0,0,
20    20 ,P,P,P,P,P,P,P,5,5,5,5,5,0,0,0,0,0,0,0,0,0,0,0,0,0,0,0,0,0,0
#  with 9,529 more rows

As you can see, CALENDARKE includes the response codes shown above, each separated by a comma. Each string contains 36 codes: these represent the 36 months from January 2017 through December 2019 (the last month in which Kenya 2019 samples were collected). The left-most code represents the most recent available month.

Some strings begin with a comma (i.e.the most recent month is blank). These are individuals who were interviewed in November 2019, rather than December. When we split the string into 36 columns, we must shift these individuals to the right, leaving a blank value in the left-most column (December 2019). For example, notice the blank value that appears in the new column cal_ke36 for the person ID == 2.

dat <- dat %>% 
  separate(
    col = CALENDARKE,
    into = paste0("cal_ke", 36:1),
    fill = "left"
  ) 

dat

# A tibble: 9,549 x 37
      ID cal_ke36 cal_ke35 cal_ke34 cal_ke33 cal_ke32 cal_ke31
   <int> <chr>    <chr>    <chr>    <chr>    <chr>    <chr>   
 1     1 "0"      0        B        P        P        P       
 2     2 ""       7        7        7        7        7       
 3     3 "0"      0        0        0        0        0       
 4     4 "0"      0        0        0        0        0       
 5     5 ""       5        5        5        5        5       
 6     6 "5"      5        5        5        5        5       
 7     7 "5"      5        5        5        5        5       
 8     8 "P"      P        P        P        P        P       
 9     9 "0"      0        0        0        0        0       
10    10 ""       P        P        P        9        9       
11    11 ""       0        0        0        0        0       
12    12 ""       0        0        0        0        0       
13    13 ""       P        P        P        P        P       
14    14 "0"      0        0        0        0        0       
15    15 "0"      0        0        0        0        0       
16    16 "3"      3        3        3        3        3       
17    17 ""       5        5        5        5        5       
18    18 ""       5        5        5        5        5       
19    19 "0"      0        0        0        0        0       
20    20 ""       P        P        P        P        P       
#  with 9,529 more rows, and 30 more variables: cal_ke30 <chr>,
#   cal_ke29 <chr>, cal_ke28 <chr>, cal_ke27 <chr>, cal_ke26 <chr>,
#   cal_ke25 <chr>, cal_ke24 <chr>, cal_ke23 <chr>, cal_ke22 <chr>,
#   cal_ke21 <chr>, cal_ke20 <chr>, cal_ke19 <chr>, cal_ke18 <chr>,
#   cal_ke17 <chr>, cal_ke16 <chr>, cal_ke15 <chr>, cal_ke14 <chr>,
#   cal_ke13 <chr>, cal_ke12 <chr>, cal_ke11 <chr>, cal_ke10 <chr>,
#   cal_ke9 <chr>, cal_ke8 <chr>, cal_ke7 <chr>, cal_ke6 <chr>,
#   cal_ke5 <chr>, cal_ke4 <chr>, cal_ke3 <chr>, cal_ke2 <chr>,
#   cal_ke1 <chr>
Lets now pivot the data from wide to long format so that well be able to mark time in a new column called MONTH. The argument names_pattern pulls the number from each variable starting with cal_ke, which we then put in the new column MONTH.

options(tibble.print_min = 40)

dat <- dat %>% 
  pivot_longer(
    starts_with("cal_ke"),
    names_pattern = "cal_ke(.*)",
    names_to = "MONTH",
    values_to = "FP"
  ) 

dat

# A tibble: 343,764 x 3
      ID MONTH FP   
   <int> <chr> <chr>
 1     1 36    "0"  
 2     1 35    "0"  
 3     1 34    "B"  
 4     1 33    "P"  
 5     1 32    "P"  
 6     1 31    "P"  
 7     1 30    "P"  
 8     1 29    "P"  
 9     1 28    "P"  
10     1 27    "P"  
11     1 26    "P"  
12     1 25    "0"  
13     1 24    "0"  
14     1 23    "0"  
15     1 22    "0"  
16     1 21    "0"  
17     1 20    "0"  
18     1 19    "0"  
19     1 18    "0"  
20     1 17    "0"  
21     1 16    "0"  
22     1 15    "0"  
23     1 14    "0"  
24     1 13    "3"  
25     1 12    "3"  
26     1 11    "3"  
27     1 10    "3"  
28     1 9     "3"  
29     1 8     "3"  
30     1 7     "3"  
31     1 6     "3"  
32     1 5     "3"  
33     1 4     "3"  
34     1 3     "3"  
35     1 2     "3"  
36     1 1     "3"  
37     2 36    ""   
38     2 35    "7"  
39     2 34    "7"  
40     2 33    "7"  
#  with 343,724 more rows
…
dat

# A tibble: 343,764 x 3
      ID MONTH FP                            
   <int> <int> <fct>                         
 1     1    36 No family planning method used
 2     1    35 No family planning method used
 3     1    34 Birth                         
 4     1    33 Pregnant                      
 5     1    32 Pregnant                      
 6     1    31 Pregnant                      
 7     1    30 Pregnant                      
 8     1    29 Pregnant                      
 9     1    28 Pregnant                      
10     1    27 Pregnant                      
11     1    26 Pregnant                      
12     1    25 No family planning method used
13     1    24 No family planning method used
14     1    23 No family planning method used
15     1    22 No family planning method used
16     1    21 No family planning method used
17     1    20 No family planning method used
18     1    19 No family planning method used
19     1    18 No family planning method used
20     1    17 No family planning method used
21     1    16 No family planning method used
22     1    15 No family planning method used
23     1    14 No family planning method used
24     1    13 Implant                       
25     1    12 Implant                       
26     1    11 Implant                       
27     1    10 Implant                       
28     1     9 Implant                       
29     1     8 Implant                       
30     1     7 Implant                       
31     1     6 Implant                       
32     1     5 Implant                       
33     1     4 Implant                       
34     1     3 Implant                       
35     1     2 Implant                       
36     1     1 Implant                       
37     2    36 <NA>                          
38     2    35 Pill                          
39     2    34 Pill                          
40     2    33 Pill                          
#  with 343,724 more rows

Were now ready to begin our analysis. To keep our example simple, our survival curves will show the duration of continuously used family planning methods for cohorts of women who were using the same method in January 2017. These survival curves will estimate the probability that an individual survives - or continues using - a given method at each of 36 months, assuming that she used it in month 1. Well exclude the duration of use after any break (for example, if a woman stopped using family planning to become pregnant, but then started again afterward).

Lets begin with women who were using the contraceptive pill in January 2017. Remove all other women, saving those who remain as a sub-sample called pills:

pills <- dat %>% 
  group_by(ID) %>% 
  mutate(use_m1 = case_when(FP == "Pill" & MONTH == 1 ~ TRUE) %>% any()) %>% 
  filter(use_m1)

pills 

# A tibble: 10,332 x 4
# Groups:   ID [287]
      ID MONTH FP          use_m1
   <int> <int> <fct>       <lgl> 
 1    18    36 <NA>        TRUE  
 2    18    35 Injectables TRUE  
 3    18    34 Injectables TRUE  
 4    18    33 Injectables TRUE  
 5    18    32 Injectables TRUE  
 6    18    31 Injectables TRUE  
 7    18    30 Injectables TRUE  
 8    18    29 Injectables TRUE  
 9    18    28 Injectables TRUE  
10    18    27 Injectables TRUE  
11    18    26 Injectables TRUE  
12    18    25 Injectables TRUE  
13    18    24 Pill        TRUE  
14    18    23 Pill        TRUE  
15    18    22 Pill        TRUE  
16    18    21 Pill        TRUE  
17    18    20 Pill        TRUE  
18    18    19 Pill        TRUE  
19    18    18 Pill        TRUE  
20    18    17 Pill        TRUE  
21    18    16 Pill        TRUE  
22    18    15 Pill        TRUE  
23    18    14 Pill        TRUE  
24    18    13 Pill        TRUE  
25    18    12 Pill        TRUE  
26    18    11 Pill        TRUE  
27    18    10 Pill        TRUE  
28    18     9 Pill        TRUE  
29    18     8 Pill        TRUE  
30    18     7 Pill        TRUE  
31    18     6 Pill        TRUE  
32    18     5 Pill        TRUE  
33    18     4 Pill        TRUE  
34    18     3 Pill        TRUE  
35    18     2 Pill        TRUE  
36    18     1 Pill        TRUE  
37    39    36 Pill        TRUE  
38    39    35 Pill        TRUE  
39    39    34 Pill        TRUE  
40    39    33 Pill        TRUE  
#  with 10,292 more rows
…
To avoid re-entry cases (returning to use of the pill), well find the earliest month that a woman in this cohort was not using the pill. The month prior to this will be her last_month of using the pill. For the first person in this cohort ID == 18, for example, the last_month of use should be MONTH == 24.

pills <- pills %>% 
  mutate(
    non_use_month = case_when(FP != "Pill" | is.na(FP) ~ MONTH),
    last_month = ifelse(
      all(is.na(non_use_month)),
      36,
      min(non_use_month, na.rm = T) - 1
    )
  ) 

pills

# A tibble: 10,332 x 6
# Groups:   ID [287]
      ID MONTH FP          use_m1 non_use_month last_month
   <int> <int> <fct>       <lgl>          <int>      <dbl>
 1    18    36 <NA>        TRUE              36         24
 2    18    35 Injectables TRUE              35         24
 3    18    34 Injectables TRUE              34         24
 4    18    33 Injectables TRUE              33         24
 5    18    32 Injectables TRUE              32         24
 6    18    31 Injectables TRUE              31         24
 7    18    30 Injectables TRUE              30         24
 8    18    29 Injectables TRUE              29         24
 9    18    28 Injectables TRUE              28         24
10    18    27 Injectables TRUE              27         24
11    18    26 Injectables TRUE              26         24
12    18    25 Injectables TRUE              25         24
13    18    24 Pill        TRUE              NA         24
14    18    23 Pill        TRUE              NA         24
15    18    22 Pill        TRUE              NA         24
16    18    21 Pill        TRUE              NA         24
17    18    20 Pill        TRUE              NA         24
18    18    19 Pill        TRUE              NA         24
19    18    18 Pill        TRUE              NA         24
20    18    17 Pill        TRUE              NA         24
21    18    16 Pill        TRUE              NA         24
22    18    15 Pill        TRUE              NA         24
23    18    14 Pill        TRUE              NA         24
24    18    13 Pill        TRUE              NA         24
25    18    12 Pill        TRUE              NA         24
26    18    11 Pill        TRUE              NA         24
27    18    10 Pill        TRUE              NA         24
28    18     9 Pill        TRUE              NA         24
29    18     8 Pill        TRUE              NA         24
30    18     7 Pill        TRUE              NA         24
31    18     6 Pill        TRUE              NA         24
32    18     5 Pill        TRUE              NA         24
33    18     4 Pill        TRUE              NA         24
34    18     3 Pill        TRUE              NA         24
35    18     2 Pill        TRUE              NA         24
36    18     1 Pill        TRUE              NA         24
37    39    36 Pill        TRUE              NA         36
38    39    35 Pill        TRUE              NA         36
39    39    34 Pill        TRUE              NA         36
40    39    33 Pill        TRUE              NA         36
#  with 10,292 more rows

We must now identify whether the last_month represents cessation or right-censoring. Remember that a large number of women in our sample have missing values in the 36th month: they are right-censored at month 35 if they had been continuously using the pill until that time, so we cannot say that they ceased using at month 35!

To make this easier, well create a logical variable right_censored that simply indicates whether each person is missing a value for MONTH == 36.

pills <- pills %>% 
  mutate(right_censored = ifelse(MONTH == 36 & is.na(FP), T, F) %>% any())

pills 

# A tibble: 10,332 x 7
# Groups:   ID [287]
      ID MONTH FP       use_m1 non_use_month last_month right_censored
   <int> <int> <fct>    <lgl>          <int>      <dbl> <lgl>         
 1    18    36 <NA>     TRUE              36         24 TRUE          
 2    18    35 Injecta TRUE              35         24 TRUE          
 3    18    34 Injecta TRUE              34         24 TRUE          
 4    18    33 Injecta TRUE              33         24 TRUE          
 5    18    32 Injecta TRUE              32         24 TRUE          
 6    18    31 Injecta TRUE              31         24 TRUE          
 7    18    30 Injecta TRUE              30         24 TRUE          
 8    18    29 Injecta TRUE              29         24 TRUE          
 9    18    28 Injecta TRUE              28         24 TRUE          
10    18    27 Injecta TRUE              27         24 TRUE          
11    18    26 Injecta TRUE              26         24 TRUE          
12    18    25 Injecta TRUE              25         24 TRUE          
13    18    24 Pill     TRUE              NA         24 TRUE          
14    18    23 Pill     TRUE              NA         24 TRUE          
15    18    22 Pill     TRUE              NA         24 TRUE          
16    18    21 Pill     TRUE              NA         24 TRUE          
17    18    20 Pill     TRUE              NA         24 TRUE          
18    18    19 Pill     TRUE              NA         24 TRUE          
19    18    18 Pill     TRUE              NA         24 TRUE          
20    18    17 Pill     TRUE              NA         24 TRUE          
21    18    16 Pill     TRUE              NA         24 TRUE          
22    18    15 Pill     TRUE              NA         24 TRUE          
23    18    14 Pill     TRUE              NA         24 TRUE          
24    18    13 Pill     TRUE              NA         24 TRUE          
25    18    12 Pill     TRUE              NA         24 TRUE          
26    18    11 Pill     TRUE              NA         24 TRUE          
27    18    10 Pill     TRUE              NA         24 TRUE          
28    18     9 Pill     TRUE              NA         24 TRUE          
29    18     8 Pill     TRUE              NA         24 TRUE          
30    18     7 Pill     TRUE              NA         24 TRUE          
31    18     6 Pill     TRUE              NA         24 TRUE          
32    18     5 Pill     TRUE              NA         24 TRUE          
33    18     4 Pill     TRUE              NA         24 TRUE          
34    18     3 Pill     TRUE              NA         24 TRUE          
35    18     2 Pill     TRUE              NA         24 TRUE          
36    18     1 Pill     TRUE              NA         24 TRUE          
37    39    36 Pill     TRUE              NA         36 FALSE         
38    39    35 Pill     TRUE              NA         36 FALSE         
39    39    34 Pill     TRUE              NA         36 FALSE         
40    39    33 Pill     TRUE              NA         36 FALSE         
#  with 10,292 more rows
…
