Longitudinal Data Extracts
…
Which format is best for me?

The choice between long and wide formats ultimately depends on your research objectives.

Many data manipulation tasks, for example, are faster and easier to perform in the wide format. In the example above, we needed to identify women who completed a Female Questionnaire and were members of the de facto population in both phases. In the long format, we first had to group the data by FQINSTID with group_by, thereby ensuring that a Phase 1 and Phase 2 check could be performed for each woman. In preparing for this post, this approach took about 36.5 seconds. By comparison, the same task was achieved without group_by in wide format in just 0.16 seconds. If your workflow requires multiple comparisons between phases, the wide format may be the best choice!

On the other hand, many of the longitudinal modeling packages available for R require data to be in a long format - this includes both the survival package for Cox regression and the lme4 package for multilevel models. Users who prefer the wide format for data cleaning and exploration can manually switch to long format with help from pivot_longer, for example:

wide %>% select(FQINSTID, AGE_1, PREGNANT_1, AGE_2, PREGNANT_2)

# A tibble: 17,725 × 5
   FQINSTID                        AGE_1 PREGNANT_1   AGE_2 PREGNANT_2
   <chr>                         <int+l>  <int+lbl> <int+l>  <int+lbl>
 1 uuid:0005f6d7-b7cd-46f6-8a6f…      30    0 [No]       31     0 [No]
 2 uuid:0006cb76-09d1-4f2a-a92d…      34    1 [Yes]      34     0 [No]
 3 uuid:00204481-5cae-4188-abb3…      17    0 [No]       18     0 [No]
 4 uuid:002398f4-8f2d-4095-8019…      29    0 [No]       29     0 [No]
 5 uuid:00407300-c1e6-4e24-ab8d…      25    0 [No]       25     0 [No]
 6 uuid:00413ed1-d176-44fb-a232…      32    0 [No]       32     0 [No]
 7 uuid:0048a052-66ff-4ed5-9fa9…      38    0 [No]       39     0 [No]
 8 uuid:004d80f0-90c6-4b77-bb4d…      38    0 [No]       38     0 [No]
 9 uuid:00504cf5-870c-4a02-aad7…      33    0 [No]       34     0 [No]
10 uuid:00534792-fb84-47b4-8606…      24    0 [No]       25     0 [No]
# … with 17,715 more rows

With pivot_longer, you can strip the suffix 1 or 2 from each variable, placing the result in a new column called PHASE. Then, we’ll pivot each woman’s age and pregnancy status from 2 wide columns into a single long one.

wide %>% 
  select(FQINSTID, AGE_1, PREGNANT_1, AGE_2, PREGNANT_2) %>% 
  pivot_longer(
    !FQINSTID, 
    names_pattern = "(.*)_([1-2])",
    names_to = c(".value", "PHASE")
  )

# A tibble: 35,450 × 4
   FQINSTID                                  PHASE       AGE  PREGNANT
   <chr>                                     <chr> <int+lbl> <int+lbl>
 1 uuid:0005f6d7-b7cd-46f6-8a6f-5f051b6ab4a2 1            30   0 [No] 
 2 uuid:0005f6d7-b7cd-46f6-8a6f-5f051b6ab4a2 2            31   0 [No] 
 3 uuid:0006cb76-09d1-4f2a-a92d-c12fcaf194b5 1            34   1 [Yes]
 4 uuid:0006cb76-09d1-4f2a-a92d-c12fcaf194b5 2            34   0 [No] 
 5 uuid:00204481-5cae-4188-abb3-0367d0ed9c14 1            17   0 [No] 
 6 uuid:00204481-5cae-4188-abb3-0367d0ed9c14 2            18   0 [No] 
 7 uuid:002398f4-8f2d-4095-8019-c306d39cf2b9 1            29   0 [No] 
 8 uuid:002398f4-8f2d-4095-8019-c306d39cf2b9 2            29   0 [No] 
 9 uuid:00407300-c1e6-4e24-ab8d-8af5e1ca85a6 1            25   0 [No] 
10 uuid:00407300-c1e6-4e24-ab8d-8af5e1ca85a6 2            25   0 [No] 
# … with 35,440 more rows
…
