Infant and Young Child Feeding (IYCF) Indicators for PMA Nutrition Data
…
grp_summary

# A tibble: 24 x 3
   KIDAGEMO_3   group                                  value
   <fct>        <fct>                                  <dbl>
 1 6-11 months  "Breastmilk"                           94.6 
 2 6-11 months  "Legumes and nuts"                      6.95
 3 6-11 months  "Eggs"                                  4.90
 4 6-11 months  "Other \n fruits / veg"                 5.69
 5 6-11 months  "Grains, roots, \n tubers"             83.6 
 6 6-11 months  "Dairy"                                20.2 
 7 6-11 months  "Flesh foods \n (meat, fish, poultry)" 25.6 
 8 6-11 months  "Vitamin A-rich \n fruits / veg"       49.1 
 9 12-17 months "Breastmilk"                           95.5 
10 12-17 months "Legumes and nuts"                      8.80
# … with 14 more rows
…
