Data Analysis Hub: Abortion Incidence with Third Party Reporting
…
dat 

# A tibble: 11,106 × 9
      id age   edu       wealth  marstat             relig           ethnicity parity urban
   <int> <fct> <fct>     <fct>   <fct>               <fct>           <fct>     <fct>  <fct>
 1     1 35-39 Never     Lowest  Partnered           Other Christian Other     0      Rural
 2     2 35-39 Never     Lowest  Partnered           Muslim          Hausa     3-4    Rural
 3     3 15-19 Secondary Lower   Partnered           Catholic        Other     0      Rural
 4     4 40-44 Never     Lowest  Partnered           Muslim          Hausa     5+     Rural
 5     5 30-34 Never     Lowest  Partnered           Other Christian Other     1-2    Rural
 6     6 45+   Never     Lowest  Partnered           Muslim          Hausa     5+     Rural
 7     7 30-34 Higher    Higher  Partnered           Other Christian Other     1-2    Urban
 8     8 25-29 Never     Lower   Partnered           Muslim          Hausa     3-4    Rural
 9     9 35-39 Higher    Highest Partnered           Other Christian Igbo      5+     Urban
10    10 15-19 Secondary Middle  Separated / Widowed Other Christian Other     0      Urban
# … with 11,096 more rows
…
dat <- ng %>% 
  mutate(
    .keep = "none",
    id,
    term = ABORYR %in% 2017:2018,
    reg = REGYR %in% 2017:2018,
    any = reg | term,
    avg = pick(term, any) %>% rowMeans,
    yrs = (INTFQCMC - 1405)/12 # Jan 2017 as CMC = 1405
  ) %>% 
  print() %>% # preview columns to be joined with `dat` 
  full_join(dat, by = "id")

# A tibble: 11,106 × 6
      id term  reg   any     avg   yrs
   <int> <lgl> <lgl> <lgl> <dbl> <dbl>
 1     1 FALSE FALSE FALSE   0    1.25
 2     2 FALSE FALSE FALSE   0    1.25
 3     3 FALSE TRUE  TRUE    0.5  1.25
 4     4 FALSE FALSE FALSE   0    1.25
 5     5 FALSE FALSE FALSE   0    1.25
 6     6 FALSE FALSE FALSE   0    1.33
 7     7 FALSE TRUE  TRUE    0.5  1.25
 8     8 FALSE FALSE FALSE   0    1.25
 9     9 FALSE FALSE FALSE   0    1.33
10    10 FALSE FALSE FALSE   0    1.25
# … with 11,096 more rows
…
Finally, we’ll attach simpmle numeric versions of a few technical variables:

dat <- ng %>% 
  mutate(
    .keep = "none",
    id, 
    weight = FQWEIGHT %>% zap_labels,
    eaid = EAID %>% zap_labels,
    strata = STRATA %>% zap_labels,
  ) %>% 
  print() %>% # preview columns to be joined with `dat` 
  full_join(dat, by = "id")

# A tibble: 11,106 × 4
      id weight  eaid strata
   <int>  <dbl> <dbl>  <int>
 1     1  0.220   113  56604
 2     2  0.109   134  56604
 3     3  0.527   616  56607
 4     4  0.109   134  56604
 5     5  1.37    384  56609
 6     6  0.759   124  56604
 7     7  2.26    356  56609
 8     8  1.64    496  56605
 9     9  0.913   155  56606
10    10  0.959   556  56608
# … with 11,096 more rows
…
      ) %>% 
      fct_relevel("15-19","20-24","25-29","30-34","35-39", "40-44"),
    edu_f1 = EDUCATTFRND1 %>% 
      case_match(
        100 ~ "Never",
        200 ~ "Primary",
        400 ~ "Secondary",
        600 ~ "Higher"
      ) %>% 
      fct_relevel("Never", "Primary", "Secondary")
  ) %>% 
  print() %>% # preview columns to be joined with `dat` 
  full_join(dat, by = "id")

# A tibble: 11,106 × 3
      id age_f1 edu_f1
   <int> <fct>  <fct> 
 1     1 40-44  Never 
 2     2 <NA>   <NA>  
 3     3 <NA>   <NA>  
 4     4 <NA>   <NA>  
 5     5 <NA>   <NA>  
 6     6 <NA>   <NA>  
 7     7 30-34  Higher
 8     8 25-29  Never 
 9     9 35-39  Higher
10    10 <NA>   <NA>  
# … with 11,096 more rows
…
avg_f1 - the mean value of aboryr_f1 and anyyr_f1, as reported by Bell et al. (2020a; 2020b)

dat <- ng %>% 
  mutate(
    .keep = "none",
    id, has_f1, 
    term_f1 = if_else(termev_f1, ABORYR_FRND1 %in% 2017:2018, FALSE),
    reg_f1 = if_else(regev_f1, REGYRFRND1 %in% 2017:2018, FALSE),
    any_f1 = term_f1 | reg_f1,
    avg_f1 = pick(term_f1, any_f1) %>% rowMeans,
  ) %>% 
  print() %>% # preview columns to be joined with `dat` 
  full_join(dat, by = "id")

# A tibble: 11,106 × 6
      id has_f1 term_f1 reg_f1 any_f1 avg_f1
   <int> <lgl>  <lgl>   <lgl>  <lgl>   <dbl>
 1     1 TRUE   FALSE   FALSE  FALSE       0
 2     2 FALSE  NA      NA     NA         NA
 3     3 FALSE  NA      NA     NA         NA
 4     4 FALSE  NA      NA     NA         NA
 5     5 FALSE  NA      NA     NA         NA
 6     6 FALSE  NA      NA     NA         NA
 7     7 TRUE   FALSE   FALSE  FALSE       0
 8     8 TRUE   FALSE   FALSE  FALSE       0
 9     9 TRUE   FALSE   FALSE  FALSE       0
10    10 FALSE  NA      NA     NA         NA
# … with 11,096 more rows
…
result <- dat %>% 
  filter(!if_any(
    c(age, edu, wealth, marstat, relig, ethnicity, parity, urban), 
    ~is.na(.x)
  )) %>%
  mutate(predicted = predict(mod_term, newdata = pick(everything())) %>% exp) 

Let’s compare the predicted values with those in term_f1 for the first 20 rows in the resulting data frame.

result %>% select(predicted, has_f1, term_f1) %>% print(n = 20)

# A tibble: 11,084 × 3
   predicted   has_f1 term_f1
   <svystat>   <lgl>  <lgl>  
 1 0.021639958 TRUE   FALSE  
 2 0.016593557 FALSE  NA     
 3 0.059412618 FALSE  NA     
 4 0.012548495 FALSE  NA     
 5 0.031222636 FALSE  NA     
 6 0.006188911 FALSE  NA     
 7 0.068066845 TRUE   FALSE  
 8 0.019658020 TRUE   FALSE  
 9 0.023480061 TRUE   FALSE  
10 0.096823637 FALSE  NA     
11 0.021164499 TRUE   FALSE  
12 0.087638625 FALSE  NA     
13 0.046756815 FALSE  NA     
14 0.162033942 TRUE   FALSE  
15 0.044651003 TRUE   FALSE  
16 0.033077578 FALSE  NA     
17 0.066055775 TRUE   TRUE   
18 0.035565384 FALSE  NA     
19 0.055831264 TRUE   FALSE  
20 0.068178847 FALSE  NA     
# … with 11,064 more rows
…
The NA values in term_f1 appear for respondents who identified no person as Friend 1. That’s where the predicted values come in: we’ll now substitute the predicted value in place of NA values. Because these values are numeric, we’ll coerce the existing values in term_f1 to 0 (for FALSE) and 1 (for TRUE).

result <- result %>% 
  mutate(final_f1 = if_else(
    is.na(term_f1), 
    as.double(predicted), 
    as.double(term_f1)
  )) 

result %>% 
  select(predicted, has_f1, term_f1, final_f1) %>% 
  print(n = 20)

# A tibble: 11,084 × 4
   predicted   has_f1 term_f1 final_f1
   <svystat>   <lgl>  <lgl>      <dbl>
 1 0.021639958 TRUE   FALSE    0      
 2 0.016593557 FALSE  NA       0.0166 
 3 0.059412618 FALSE  NA       0.0594 
 4 0.012548495 FALSE  NA       0.0125 
 5 0.031222636 FALSE  NA       0.0312 
 6 0.006188911 FALSE  NA       0.00619
 7 0.068066845 TRUE   FALSE    0      
 8 0.019658020 TRUE   FALSE    0      
 9 0.023480061 TRUE   FALSE    0      
10 0.096823637 FALSE  NA       0.0968 
11 0.021164499 TRUE   FALSE    0      
12 0.087638625 FALSE  NA       0.0876 
13 0.046756815 FALSE  NA       0.0468 
14 0.162033942 TRUE   FALSE    0      
15 0.044651003 TRUE   FALSE    0      
16 0.033077578 FALSE  NA       0.0331 
17 0.066055775 TRUE   TRUE     1      
18 0.035565384 FALSE  NA       0.0356 
19 0.055831264 TRUE   FALSE    0      
20 0.068178847 FALSE  NA       0.0682 
# … with 11,064 more rows
…
