Data Analysis Hub: Barriers to Implant Removal
…
reasons_tbl

# A tibble: 165 × 5
   POP               var_name             coef   `_low`   `_upp`
   <chr>             <chr>               <dbl>    <dbl>    <dbl>
 1 Burkina Faso 2016 FPIMPRMVYCOST    1.16e- 1 2.57e- 2 3.97e- 1
 2 Burkina Faso 2016 FPIMPRMVYCOUNS   2.28e- 1 6.88e- 2 5.42e- 1
 3 Burkina Faso 2016 FPIMPRMVYDK      1.50e- 1 4.03e- 2 4.27e- 1
 4 Burkina Faso 2016 FPIMPRMVYCLOSED  1.93e- 2 2.52e- 3 1.33e- 1
 5 Burkina Faso 2016 FPIMPRMVYOTH     5.52e- 2 1.56e- 2 1.77e- 1
 6 Burkina Faso 2016 FPIMPRMVYREFUSE  1.14e- 1 3.32e- 2 3.23e- 1
 7 Burkina Faso 2016 FPIMPRMVYELSEWH  6.56e- 2 8.28e- 3 3.72e- 1
 8 Burkina Faso 2016 FPIMPRMVYRETURN  7.19e-12 3.90e-12 1.32e-11
 9 Burkina Faso 2016 FPIMPRMVYTRAVEL  7.19e-12 3.90e-12 1.32e-11
10 Burkina Faso 2016 FPIMPRMVYUNAVAIL 1.87e- 1 4.53e- 2 5.26e- 1
11 Burkina Faso 2016 FPIMPRMVYUNSUCC  6.50e- 2 9.47e- 3 3.36e- 1
12 Burkina Faso 2017 FPIMPRMVYCOST    2.61e- 1 9.96e- 2 5.29e- 1
13 Burkina Faso 2017 FPIMPRMVYCOUNS   9.16e- 2 1.70e- 2 3.70e- 1
14 Burkina Faso 2017 FPIMPRMVYDK      1.90e- 2 2.43e- 3 1.33e- 1
15 Burkina Faso 2017 FPIMPRMVYCLOSED  7.07e-12 4.10e-12 1.22e-11
16 Burkina Faso 2017 FPIMPRMVYOTH     6.46e- 2 8.29e- 3 3.64e- 1
17 Burkina Faso 2017 FPIMPRMVYREFUSE  1.68e- 1 5.01e- 2 4.38e- 1
18 Burkina Faso 2017 FPIMPRMVYELSEWH  1.12e- 1 2.03e- 2 4.35e- 1
19 Burkina Faso 2017 FPIMPRMVYRETURN  9.65e- 2 1.72e- 2 3.95e- 1
20 Burkina Faso 2017 FPIMPRMVYTRAVEL  7.66e- 2 9.92e- 3 4.07e- 1
# … with 145 more rows

To finish the table, we’ll now attach the number of
pop_cases and the appropriate reason_labels we
saved above.

reasons_tbl <- reasons_tbl %>% 
  left_join(pop_cases, by = "POP") %>% 
  left_join(reason_labels, by = "var_name")

reasons_tbl

# A tibble: 165 × 7
   POP               var_name             coef   `_low`   `_upp`     n var_label                    
   <chr>             <chr>               <dbl>    <dbl>    <dbl> <int> <chr>                        
 1 Burkina Faso 2016 FPIMPRMVYCOST    1.16e- 1 2.57e- 2 3.97e- 1    20 Service cost                 
 2 Burkina Faso 2016 FPIMPRMVYCOUNS   2.28e- 1 6.88e- 2 5.42e- 1    20 Provider counseled against   
 3 Burkina Faso 2016 FPIMPRMVYDK      1.50e- 1 4.03e- 2 4.27e- 1    20 Don't know                   
 4 Burkina Faso 2016 FPIMPRMVYCLOSED  1.93e- 2 2.52e- 3 1.33e- 1    20 Facility closed              
 5 Burkina Faso 2016 FPIMPRMVYOTH     5.52e- 2 1.56e- 2 1.77e- 1    20 Other                        
 6 Burkina Faso 2016 FPIMPRMVYREFUSE  1.14e- 1 3.32e- 2 3.23e- 1    20 Provider refused             
 7 Burkina Faso 2016 FPIMPRMVYELSEWH  6.56e- 2 8.28e- 3 3.72e- 1    20 Referred elsewhere           
 8 Burkina Faso 2016 FPIMPRMVYRETURN  7.19e-12 3.90e-12 1.32e-11    20 Told to return another day   
 9 Burkina Faso 2016 FPIMPRMVYTRAVEL  7.19e-12 3.90e-12 1.32e-11    20 Travel cost                  
10 Burkina Faso 2016 FPIMPRMVYUNAVAIL 1.87e- 1 4.53e- 2 5.26e- 1    20 Qualified provider not avail…
11 Burkina Faso 2016 FPIMPRMVYUNSUCC  6.50e- 2 9.47e- 3 3.36e- 1    20 Failed attempt by provider   
12 Burkina Faso 2017 FPIMPRMVYCOST    2.61e- 1 9.96e- 2 5.29e- 1    18 Service cost                 
13 Burkina Faso 2017 FPIMPRMVYCOUNS   9.16e- 2 1.70e- 2 3.70e- 1    18 Provider counseled against   
14 Burkina Faso 2017 FPIMPRMVYDK      1.90e- 2 2.43e- 3 1.33e- 1    18 Don't know                   
15 Burkina Faso 2017 FPIMPRMVYCLOSED  7.07e-12 4.10e-12 1.22e-11    18 Facility closed              
16 Burkina Faso 2017 FPIMPRMVYOTH     6.46e- 2 8.29e- 3 3.64e- 1    18 Other                        
17 Burkina Faso 2017 FPIMPRMVYREFUSE  1.68e- 1 5.01e- 2 4.38e- 1    18 Provider refused             
18 Burkina Faso 2017 FPIMPRMVYELSEWH  1.12e- 1 2.03e- 2 4.35e- 1    18 Referred elsewhere           
19 Burkina Faso 2017 FPIMPRMVYRETURN  9.65e- 2 1.72e- 2 3.95e- 1    18 Told to return another day   
20 Burkina Faso 2017 FPIMPRMVYTRAVEL  7.66e- 2 9.92e- 3 4.07e- 1    18 Travel cost                  
# … with 145 more rows
…
