Data Analysis Hub: Recode and Summarize Variables from Multiiple Response Questions
…
That leaves us with 234 rows - each a facility from one of our two samples - and 49 variables:

sdp

# A tibble: 234 x 49
   FACILITYID      SAMPLE  EAID CONPROV CYCBPROV DEPOPROV DIAPROV
    <int+lbl>   <int+lbl> <dbl> <int+l> <int+lb> <int+lb> <int+l>
 1       7250 85405 [Bur  7142 1 [Yes]  1 [Yes]  1 [Yes]  0 [No]
 2       7399 85405 [Bur  7879 1 [Yes]  1 [Yes]  1 [Yes]  0 [No]
 3       7506 85405 [Bur  7483 1 [Yes]  1 [Yes]  1 [Yes]  0 [No]
 4       7982 85405 [Bur  7185 1 [Yes]  1 [Yes]  1 [Yes]  0 [No]
 5       7065 85405 [Bur  7859 1 [Yes]  1 [Yes]  1 [Yes]  0 [No]
 6       7729 85405 [Bur  7082 1 [Yes]  0 [No]   1 [Yes]  0 [No]
 7       7490 85405 [Bur  7650 1 [Yes]  1 [Yes]  1 [Yes]  0 [No]
 8       7311 85405 [Bur  7955 1 [Yes]  1 [Yes]  1 [Yes]  0 [No]
 9       7524 85405 [Bur  7323 1 [Yes]  1 [Yes]  1 [Yes]  0 [No]
10       7932 85405 [Bur  7774 1 [Yes]  1 [Yes]  1 [Yes]  0 [No]
#  with 224 more rows, and 42 more variables: EMRGPROV <int+lbl>,
#   FCPROV <int+lbl>, FSTPROV <int+lbl>, FJPROV <int+lbl>,
#   IMPPROV <int+lbl>, IUDPROV <int+lbl>, MSTPROV <int+lbl>,
#   PILLPROV <int+lbl>, SAYPROV <int+lbl>, CONOBS <int+lbl>,
#   CYCBOBS <int+lbl>, DEPOOBS <int+lbl>, DIAOBS <int+lbl>,
#   EMRGOBS <int+lbl>, FCOBS <int+lbl>, FJOBS <int+lbl>,
#   IMPOBS <int+lbl>, IUDOBS <int+lbl>, PILLOBS <int+lbl>,
#   SAYOBS <int+lbl>, CONOUT3MO <int+lbl>, CYCBOUT3MO <int+lbl>,
#   DEPOOUT3MO <int+lbl>, DIAOUT3MO <int+lbl>, EMRGOUT3MO <int+lbl>,
…
Summarize Variable Groups by Facility

Everything looks great! Now that weve finished reformatting the data, remember that our ultimate goal is to get some sense of the scope of methods available at a particular facility.

Wed like to use something like across again here, but this time well only want to apply our function to a selection of columns within the same row (because each row of our dataset represents one facility). To do this, well divide the dataset rowwise, and then use the related function c_across to apply a calculation across columns within each row.

For instance, suppose we want to create NUM_METHODS_PROV to show the total number of methods provided at each facility. Lets look at the PROV variables for the first few facilities:

sdp %>% select(ends_with("PROV"))

# A tibble: 234 x 13
   CONPROV CYCBPROV DEPOPROV DIAPROV EMRGPROV  FCPROV FSTPROV FJPROV
   <int+l> <int+lb> <int+lb> <int+l> <int+lb> <int+l> <int+l> <int+>
 1 1 [Yes]  1 [Yes]  1 [Yes]  0 [No]  0 [No]  1 [Yes] 1 [Yes] 0 [No]
 2 1 [Yes]  1 [Yes]  1 [Yes]  0 [No]  0 [No]  1 [Yes] 1 [Yes] 0 [No]
 3 1 [Yes]  1 [Yes]  1 [Yes]  0 [No]  0 [No]  1 [Yes] 0 [No]  0 [No]
 4 1 [Yes]  1 [Yes]  1 [Yes]  0 [No]  0 [No]  1 [Yes] 0 [No]  0 [No]
 5 1 [Yes]  1 [Yes]  1 [Yes]  0 [No]  1 [Yes] 1 [Yes] 1 [Yes] 0 [No]
 6 1 [Yes]  0 [No]   1 [Yes]  0 [No]  0 [No]  1 [Yes] 1 [Yes] 0 [No]
 7 1 [Yes]  1 [Yes]  1 [Yes]  0 [No]  0 [No]  1 [Yes] 0 [No]  0 [No]
 8 1 [Yes]  1 [Yes]  1 [Yes]  0 [No]  0 [No]  1 [Yes] 1 [Yes] 0 [No]
 9 1 [Yes]  1 [Yes]  1 [Yes]  0 [No]  0 [No]  1 [Yes] 0 [No]  0 [No]
10 1 [Yes]  1 [Yes]  1 [Yes]  0 [No]  0 [No]  1 [Yes] 0 [No]  0 [No]
#  with 224 more rows, and 5 more variables: IMPPROV <int+lbl>,
#   IUDPROV <int+lbl>, MSTPROV <int+lbl>, PILLPROV <int+lbl>,
#   SAYPROV <int+lbl>

To calculate NUM_METHODS_PROV, we can just find the sum of values across all of the PROV variables (thanks to our recoding work, the only possible values here are 1 for yes, or 0 for no). Notice that c_across takes only one argument: a selection function like ends_with("PROV"). Thats because c_across works like the familiar concatenate function c() used to provide a vector of values to a function like sum(c(1,2,3)).

First, use rowwise() to signal that well only calculate the sum across variables in the same row. Then, use c_across() to find the sum() of PROV variables in each row:

sdp %>% 
  rowwise() %>% 
  transmute(NUM_METHODS_PROV = sum(c_across(ends_with("PROV")), na.rm = T))

# A tibble: 234 x 1
# Rowwise: 
   NUM_METHODS_PROV
              <int>
 1               10
 2               10
 3                8
 4                8
 5               10
 6                9
 7                8
 8               10
 9                8
10                8
#  with 224 more rows
…
NUM_METHODS_OUT3MO - number of methods out of stock in the last 3 months

MEAN_OUTDAY - the mean length of a stockout for all out of stock methods

sdp %>% 
  rowwise() %>% 
  transmute(
    NUM_METHODS_PROV = sum(c_across(ends_with("PROV")), na.rm = T),
    NUM_METHODS_INSTOCK = sum(c_across(ends_with("OBS")), na.rm = T),
    NUM_METHODS_OUT3MO = sum(c_across(ends_with("OUT3MO")), na.rm = T),
    MEAN_OUTDAY = mean(c_across(ends_with("OUTDAY")), na.rm = T)
  )

# A tibble: 234 x 4
# Rowwise: 
   NUM_METHODS_PROV NUM_METHODS_INSTOCK NUM_METHODS_OUT3MO MEAN_OUTDAY
              <int>               <dbl>              <int>       <dbl>
 1               10                   8                  0         NaN
 2               10                   7                  0           8
 3                8                   8                  0         NaN
 4                8                   8                  0         NaN
 5               10                   9                  0         NaN
 6                9                   7                  0         NaN
 7                8                   7                  0         365
 8               10                   8                  1         NaN
 9                8                   8                  1         NaN
10                8                   7                  0          30
#  with 224 more rows
…
It looks like none of the sampled facilities in enumeration area 7111 provided emergency contraception in 2017. This could be very important context for understanding the health services available to women sampled from that area!

Lets repeat the same procedure for every enumeration area in each of our samples. Rather than using a filter to select one EAID in one SAMPLE, well use group_by to work with each EAID in each SAMPLE.

sdp %>% 
  group_by(EAID, SAMPLE) %>% 
  summarize(
    .groups = "keep",
    across(ends_with("PROV"), ~any(.x == 1), .names = "ANY_{.col}")
  )

# A tibble: 142 x 15
# Groups:   EAID, SAMPLE [142]
    EAID      SAMPLE ANY_CONPROV ANY_CYCBPROV ANY_DEPOPROV ANY_DIAPROV
   <dbl>   <int+lbl> <lgl>       <lgl>        <lgl>        <lgl>      
 1  7003 85405 [Bur TRUE        TRUE         TRUE         FALSE      
 2  7003 85408 [Bur TRUE        TRUE         TRUE         FALSE      
 3  7006 85405 [Bur TRUE        TRUE         TRUE         FALSE      
 4  7006 85408 [Bur TRUE        TRUE         TRUE         FALSE      
 5  7009 85405 [Bur TRUE        FALSE        TRUE         FALSE      
 6  7009 85408 [Bur TRUE        TRUE         TRUE         FALSE      
 7  7016 85405 [Bur TRUE        TRUE         TRUE         FALSE      
 8  7016 85408 [Bur TRUE        TRUE         TRUE         FALSE      
 9  7026 85405 [Bur TRUE        TRUE         TRUE         FALSE      
10  7042 85405 [Bur TRUE        TRUE         TRUE         FALSE      
#  with 132 more rows, and 9 more variables: ANY_EMRGPROV <lgl>,
#   ANY_FCPROV <lgl>, ANY_FSTPROV <lgl>, ANY_FJPROV <lgl>,
#   ANY_IMPPROV <lgl>, ANY_IUDPROV <lgl>, ANY_MSTPROV <lgl>,
#   ANY_PILLPROV <lgl>, ANY_SAYPROV <lgl>

This is still quite a bit of information! Suppose we want to summarize it even further: lets calculate NUM_METHODS_PROV again with our summary output. This time, NUM_METHODS_PROV will count the number of methods provided by at least one facility in each group.

sdp %>% 
  group_by(EAID, SAMPLE) %>% 
  summarize(
    .groups = "keep",
    across(ends_with("PROV"), ~any(.x == 1), .names = "ANY_{.col}")
  ) %>% 
  transmute(NUM_METHODS_PROV= sum(c_across(ends_with("PROV")), na.rm = T))

# A tibble: 142 x 3
# Groups:   EAID, SAMPLE [142]
    EAID                            SAMPLE NUM_METHODS_PROV
   <dbl>                         <int+lbl>            <int>
 1  7003 85405 [Burkina Faso 2017 Round 5]                8
 2  7003 85408 [Burkina Faso 2018 Round 6]                8
 3  7006 85405 [Burkina Faso 2017 Round 5]                8
 4  7006 85408 [Burkina Faso 2018 Round 6]                8
 5  7009 85405 [Burkina Faso 2017 Round 5]                8
 6  7009 85408 [Burkina Faso 2018 Round 6]               10
 7  7016 85405 [Burkina Faso 2017 Round 5]                8
 8  7016 85408 [Burkina Faso 2018 Round 6]                8
 9  7026 85405 [Burkina Faso 2017 Round 5]                8
10  7042 85405 [Burkina Faso 2017 Round 5]               10
#  with 132 more rows
…
