Data Analysis Hub: Mapping Service Delivery Point Data
…
bf_ea <- bf_merged %>%
  dplyr::select(-PERSONID) %>%
  group_by(EAID, SAMPLE) %>%
  summarise_all(mean, na.rm = T) %>%
  filter(!is.na(N_SDP)) 

In this example, well exclude any EAs where no facilities in our SDP sample provide services with filter(!is.na(N_SDP))

Now, lets read in the GPS data from the data folder and see what the it contains.

gps <- read_csv("bf_gps_fake.csv")
gps

# A tibble: 83 x 7
   PMACC PMAYEAR REGION               EA_ID DATUM GPSLAT GPSLONG
   <chr>   <dbl> <chr>                <dbl> <chr>  <dbl>   <dbl>
 1 BF       2017 5. centre-nord        7610 WGS84   14.2  0.126 
 2 BF       2017 1. boucle-du-mouhoun  7820 WGS84   13.5 -3.08  
 3 BF       2017 3. centre             7271 WGS84   12.2  1.43  
 4 BF       2017 3. centre             7799 WGS84   12.2 -0.799 
 5 BF       2017 8. est                7243 WGS84   11.0 -2.58  
 6 BF       2017 6. centre-ouest       7026 WGS84   10.9 -4.35  
 7 BF       2017 3. centre             7859 WGS84   12.4  0.0703
 8 BF       2017 3. centre             7725 WGS84   12.7  1.42  
 9 BF       2017 6. centre-ouest       7390 WGS84   10.8 -3.55  
10 BF       2017 11. plateau-central   7104 WGS84   13.3  0.0957
#  with 73 more rows
…
Note that the GPSLAT and GPSLONG are displaced coordinates of the EA centroid. This is because PMA randomly displaces the geographic coordinates to preserve the privacy of survey respondents. Coordinates are displaced randomly by both angle and distance. Urban EAs are displaced from their true location up to 2 km. Rural EAs are displaced from their true location up to 5 km. Additionally, a random sample of 1% of rural EAs are displaced up to 10km. The PMA GPS data come with documentation that explains the displacement in more detail. The primary spatial package well use is simple features or sf. Well use sf::st_as_sf() to convert the GPS data to a spatial data object (known as a simple feature collection).

gps <- gps %>%
    rename(EAID = EA_ID) %>% # rename to be consistent with other PMA data
    st_as_sf(
      coords = c("GPSLONG", "GPSLAT"), 
      crs = 4326) # 4326 is the coordinate reference system (CRS) identifier for WGS84
gps

Simple feature collection with 83 features and 5 fields
geometry type:  POINT
dimension:      XY
bbox:           xmin: -5.185229 ymin: 10.08082 xmax: 1.829187 ymax: 14.93619
geographic CRS: WGS 84
# A tibble: 83 x 6
   PMACC PMAYEAR REGION               EAID DATUM              geometry
 * <chr>   <dbl> <chr>               <dbl> <chr>           <POINT []>
 1 BF       2017 5. centre-nord       7610 WGS84  (0.1263576 14.15999)
 2 BF       2017 1. boucle-du-mouho  7820 WGS84   (-3.075099 13.4676)
 3 BF       2017 3. centre            7271 WGS84   (1.430382 12.17557)
 4 BF       2017 3. centre            7799 WGS84 (-0.7991777 12.22721)
 5 BF       2017 8. est               7243 WGS84  (-2.580105 11.03307)
 6 BF       2017 6. centre-ouest      7026 WGS84  (-4.348525 10.93844)
 7 BF       2017 3. centre            7859 WGS84 (0.07032293 12.44352)
 8 BF       2017 3. centre            7725 WGS84   (1.417154 12.68821)
 9 BF       2017 6. centre-ouest      7390 WGS84  (-3.549929 10.77006)
10 BF       2017 11. plateau-central  7104 WGS84 (0.09573113 13.27184)
#  with 73 more rows
…
